<?xml version="1.0" encoding="utf-8"?>
<COLLADA xmlns="http://www.collada.org/2005/11/COLLADASchema" version="1.4.1" xmlns:xsi="http://www.w3.org/2001/XMLSchema-instance">
  <asset>
    <contributor>
      <author>Blender User</author>
      <authoring_tool>Blender 2.80.75 commit date:2019-07-29, commit time:14:47, hash:f6cb5f54494e</authoring_tool>
    </contributor>
    <created>2020-05-10T18:41:51</created>
    <modified>2020-05-10T18:41:51</modified>
    <unit name="meter" meter="1"/>
    <up_axis>Z_UP</up_axis>
  </asset>
  <library_cameras>
    <camera id="Camera-camera" name="Camera">
      <optics>
        <technique_common>
          <perspective>
            <xfov sid="xfov">49.13434</xfov>
            <aspect_ratio>1.777778</aspect_ratio>
            <znear sid="znear">0.1</znear>
            <zfar sid="zfar">100</zfar>
          </perspective>
        </technique_common>
      </optics>
      <extra>
        <technique profile="blender">
          <shiftx sid="shiftx" type="float">0</shiftx>
          <shifty sid="shifty" type="float">0</shifty>
          <dof_distance sid="dof_distance" type="float">0</dof_distance>
        </technique>
      </extra>
    </camera>
  </library_cameras>
  <library_lights>
    <light id="Lamp-light" name="Lamp">
      <technique_common>
        <point>
          <color sid="color">100 100 100</color>
          <constant_attenuation>1</constant_attenuation>
          <linear_attenuation>0</linear_attenuation>
          <quadratic_attenuation>0.00111109</quadratic_attenuation>
        </point>
      </technique_common>
      <extra>
        <technique profile="blender">
          <type sid="type" type="int">0</type>
          <flag sid="flag" type="int">0</flag>
          <mode sid="mode" type="int">1</mode>
          <gamma sid="blender_gamma" type="float">1</gamma>
          <red sid="red" type="float">1</red>
          <green sid="green" type="float">1</green>
          <blue sid="blue" type="float">1</blue>
          <shadow_r sid="blender_shadow_r" type="float">0</shadow_r>
          <shadow_g sid="blender_shadow_g" type="float">0</shadow_g>
          <shadow_b sid="blender_shadow_b" type="float">0</shadow_b>
          <energy sid="blender_energy" type="float">100</energy>
          <dist sid="blender_dist" type="float">29.99998</dist>
          <spotsize sid="spotsize" type="float">75</spotsize>
          <spotblend sid="spotblend" type="float">0.15</spotblend>
          <att1 sid="att1" type="float">0</att1>
          <att2 sid="att2" type="float">1</att2>
          <falloff_type sid="falloff_type" type="int">2</falloff_type>
          <clipsta sid="clipsta" type="float">1.000799</clipsta>
          <clipend sid="clipend" type="float">30.002</clipend>
          <bias sid="bias" type="float">1</bias>
          <soft sid="soft" type="float">3</soft>
          <bufsize sid="bufsize" type="int">2880</bufsize>
          <samp sid="samp" type="int">3</samp>
          <buffers sid="buffers" type="int">1</buffers>
          <area_shape sid="area_shape" type="int">1</area_shape>
          <area_size sid="area_size" type="float">0.1</area_size>
          <area_sizey sid="area_sizey" type="float">0.1</area_sizey>
          <area_sizez sid="area_sizez" type="float">1</area_sizez>
        </technique>
      </extra>
    </light>
  </library_lights>
  <library_effects>
    <effect id="Material-effect">
      <profile_COMMON>
        <technique sid="common">
          <lambert>
            <emission>
              <color sid="emission">0 0 0 1</color>
            </emission>
            <diffuse>
              <color sid="diffuse">0.8 0.8 0.8 1</color>
            </diffuse>
            <reflectivity>
              <float sid="specular">0.5</float>
            </reflectivity>
          </lambert>
        </technique>
      </profile_COMMON>
    </effect>
    <effect id="Material_001-effect">
      <profile_COMMON>
        <technique sid="common">
          <lambert>
            <emission>
              <color sid="emission">0 0 0 1</color>
            </emission>
            <diffuse>
              <color sid="diffuse">0.8 0.8 0.8 1</color>
            </diffuse>
            <reflectivity>
              <float sid="specular">0.5</float>
            </reflectivity>
          </lambert>
        </technique>
      </profile_COMMON>
    </effect>
  </library_effects>
  <library_images/>
  <library_materials>
    <material id="Material-material" name="Material">
      <instance_effect url="#Material-effect"/>
    </material>
    <material id="Material_001-material" name="Material.001">
      <instance_effect url="#Material_001-effect"/>
    </material>
  </library_materials>
  <library_geometries>
    <geometry id="Cube-mesh" name="Cube">
      <mesh>
        <source id="Cube-mesh-positions">
          <float_array id="Cube-mesh-positions-array" count="30">0.05801475 1 -1 0.05801475 -0.9248332 -1 -0.1933985 -0.9248331 -1 -0.193398 1 -1 0.05801522 0.9999995 1 0.05801409 -0.8117685 1 -0.1933987 -0.8117676 1 -0.1933982 1 1 -0.0543161 1 -3.536598 -0.05431634 -0.9999999 -3.536598</float_array>
          <technique_common>
            <accessor source="#Cube-mesh-positions-array" count="10" stride="3">
              <param name="X" type="float"/>
              <param name="Y" type="float"/>
              <param name="Z" type="float"/>
            </accessor>
          </technique_common>
        </source>
        <source id="Cube-mesh-normals">
          <float_array id="Cube-mesh-normals-array" count="45">0 0 1 1 0 3.27826e-7 -7.10101e-7 -0.9984059 0.05644226 -1 2.47729e-7 -1.33214e-7 2.1337e-6 1 2.37078e-7 -0.9985003 0 -0.05474793 1.65955e-6 1 0 0.9990209 0 -0.04424071 -7.00666e-7 -0.9995613 0.02961981 1 -6.25074e-7 -2.38419e-7 -3.78721e-6 -0.9984059 0.05644255 -1 2.63189e-7 0 1.65955e-6 1 0 -0.9985002 2.43789e-7 -0.05474781 0.9990209 0 -0.04424077</float_array>
          <technique_common>
            <accessor source="#Cube-mesh-normals-array" count="15" stride="3">
              <param name="X" type="float"/>
              <param name="Y" type="float"/>
              <param name="Z" type="float"/>
            </accessor>
          </technique_common>
        </source>
        <vertices id="Cube-mesh-vertices">
          <input semantic="POSITION" source="#Cube-mesh-positions"/>
        </vertices>
        <triangles material="Material-material" count="16">
          <input semantic="VERTEX" source="#Cube-mesh-vertices" offset="0"/>
          <input semantic="NORMAL" source="#Cube-mesh-normals" offset="1"/>
          <p>4 0 6 0 5 0 0 1 5 1 1 1 5 2 2 2 1 2 6 3 3 3 2 3 0 4 7 4 4 4 2 5 8 5 9 5 3 6 0 6 8 6 1 7 8 7 0 7 1 8 2 8 9 8 4 0 7 0 6 0 0 9 4 9 5 9 5 10 6 10 2 10 6 11 7 11 3 11 0 12 3 12 7 12 2 13 3 13 8 13 1 14 9 14 8 14</p>
        </triangles>
      </mesh>
    </geometry>
    <geometry id="Cube_001-mesh" name="Cube.001">
      <mesh>
        <source id="Cube_001-mesh-positions">
          <float_array id="Cube_001-mesh-positions-array" count="24">-0.3524515 1.001188 -3.497107 -0.3524515 1.001188 1.039491 -0.3967347 2.539688 -3.497107 -0.3967347 2.539688 1.039491 0.2611899 1.000963 -3.497107 0.2611899 1.000963 1.039491 0.2169067 2.539463 -3.497107 0.2169067 2.539463 1.039491</float_array>
          <technique_common>
            <accessor source="#Cube_001-mesh-positions-array" count="8" stride="3">
              <param name="X" type="float"/>
              <param name="Y" type="float"/>
              <param name="Z" type="float"/>
            </accessor>
          </technique_common>
        </source>
        <source id="Cube_001-mesh-normals">
          <float_array id="Cube_001-mesh-normals-array" count="36">-0.9995861 -0.0287714 0 3.6755e-4 1 0 0.9995861 0.0287714 0 -3.6755e-4 -1 0 0 0 -1 0 0 1 -0.9995861 -0.0287714 0 3.6755e-4 1 0 0.9995861 0.0287714 0 -3.6755e-4 -1 0 -1.32683e-7 0 -1 0 0 1</float_array>
          <technique_common>
            <accessor source="#Cube_001-mesh-normals-array" count="12" stride="3">
              <param name="X" type="float"/>
              <param name="Y" type="float"/>
              <param name="Z" type="float"/>
            </accessor>
          </technique_common>
        </source>
        <vertices id="Cube_001-mesh-vertices">
          <input semantic="POSITION" source="#Cube_001-mesh-positions"/>
        </vertices>
        <triangles material="Material_001-material" count="12">
          <input semantic="VERTEX" source="#Cube_001-mesh-vertices" offset="0"/>
          <input semantic="NORMAL" source="#Cube_001-mesh-normals" offset="1"/>
          <p>3 0 0 0 1 0 7 1 2 1 3 1 5 2 6 2 7 2 1 3 4 3 5 3 0 4 6 4 4 4 7 5 1 5 5 5 3 6 2 6 0 6 7 7 6 7 2 7 5 8 4 8 6 8 1 9 0 9 4 9 0 10 2 10 6 10 7 11 3 11 1 11</p>
        </triangles>
      </mesh>
    </geometry>
  </library_geometries>
  <library_controllers/>
  <library_visual_scenes>
    <visual_scene id="Scene" name="Scene">
      <node id="Camera" name="Camera" type="NODE">
        <matrix sid="transform">0.6858805 -0.3173701 0.6548619 7.481132 0.7276338 0.3124686 -0.6106656 -6.50764 -0.01081678 0.8953432 0.4452454 5.343665 0 0 0 1</matrix>
        <instance_camera url="#Camera-camera"/>
      </node>
      <node id="Lamp" name="Lamp" type="NODE">
        <matrix sid="transform">-0.2908646 -0.7711008 0.5663932 4.076245 0.9551712 -0.1998834 0.2183912 1.005454 -0.05518906 0.6045247 0.7946723 5.903862 0 0 0 1</matrix>
        <instance_light url="#Lamp-light"/>
      </node>
      <node id="knife" name="knife" type="NODE">
        <matrix sid="transform">-0.9975641 0.06975647 -8.72098e-8 0 0.06975647 0.9975641 6.0983e-9 0 8.74228e-8 0 -1 0 0 0 0 1</matrix>
        <node id="knife_root" name="root" sid="root" type="JOINT">
          <matrix sid="transform">1 0 0 0 0 1 0 0 0 0 1 0 0 0 0 1</matrix>
          <node id="Cube_001" name="Cube.001" type="NODE">
            <matrix sid="transform">-0.01450155 0.007364657 8.25064e-10 -0.007316475 0.001098513 0.09722143 -5.6497e-10 -0.1033183 -2.19595e-9 -8.52372e-9 -0.005731167 -0.004904436 0 0 0 1</matrix>
            <instance_geometry url="#Cube_001-mesh" name="Cube.001">
              <bind_material>
                <technique_common>
                  <instance_material symbol="Material_001-material" target="#Material_001-material"/>
                </technique_common>
              </bind_material>
            </instance_geometry>
          </node>
          <node id="MARKER_knife_04" name="MARKER_knife_04" type="NODE">
            <matrix sid="transform">-0.3117713 -0.9501572 0 -0.006724271 0.9501572 -0.3117713 0 -0.008575584 0 0 1 -0.009445139 0 0 0 1</matrix>
            <node id="knife_04" name="knife_04" type="NODE">
              <matrix sid="transform">1 6.754e-15 -3.55271e-15 0 6.754e-15 1 0 -4.65661e-10 -3.55271e-15 0 1 -8.40145e-11 0 0 0 1</matrix>
            </node>
          </node>
          <node id="MARKER_knife_03" name="MARKER_knife_03" type="NODE">
            <matrix sid="transform">-0.3117713 -0.9501572 0 -0.002379924 0.9501572 -0.3117713 0 -0.1370631 0 0 1 -0.01145951 0 0 0 1</matrix>
            <node id="knife_03" name="knife_03" type="NODE">
              <matrix sid="transform">1 6.754e-15 -3.55271e-15 0 6.754e-15 1 0 3.72529e-9 -3.55271e-15 0 1 -3.59358e-10 0 0 0 1</matrix>
            </node>
          </node>
          <node id="MARKER_knife_02" name="MARKER_knife_02" type="NODE">
            <matrix sid="transform">-0.3117713 -0.9501572 0 -0.0215644 0.9501572 -0.3117713 0 -0.1847165 0 0 1 -0.006692609 0 0 0 1</matrix>
            <node id="knife_02" name="knife_02" type="NODE">
              <matrix sid="transform">1 6.754e-15 -3.55271e-15 0 6.754e-15 1 0 1.49012e-8 -3.55271e-15 0 1 3.49454e-12 0 0 0 1</matrix>
            </node>
          </node>
          <node id="MARKER_knife_01" name="MARKER_knife_01" type="NODE">
            <matrix sid="transform">-0.3117713 -0.9501572 0 0.01244531 0.9501572 -0.3117713 0 0.148783 0 0 1 5.26966e-4 0 0 0 1</matrix>
            <node id="knife_01" name="knife_01" type="NODE">
              <matrix sid="transform">1 6.754e-15 -3.55271e-15 0 6.754e-15 1 0 -7.45058e-9 -3.55271e-15 0 1 -1.8461e-9 0 0 0 1</matrix>
            </node>
          </node>
          <node id="Cube" name="Cube" type="NODE">
            <matrix sid="transform">-0.01450155 0.007364657 8.25064e-10 -0.007316475 0.001098513 0.09722143 -5.6497e-10 -0.1033183 -2.19595e-9 -8.52372e-9 -0.005731167 -0.004904436 0 0 0 1</matrix>
            <instance_geometry url="#Cube-mesh" name="Cube">
              <bind_material>
                <technique_common>
                  <instance_material symbol="Material-material" target="#Material-material"/>
                </technique_common>
              </bind_material>
            </instance_geometry>
          </node>
          <extra>
            <technique profile="blender">
              <layer sid="layer" type="string">0</layer>
              <tip_x sid="tip_x" type="float">0</tip_x>
              <tip_y sid="tip_y" type="float">0.00999999</tip_y>
              <tip_z sid="tip_z" type="float">0</tip_z>
            </technique>
          </extra>
        </node>
      </node>
    </visual_scene>
  </library_visual_scenes>
  <scene>
    <instance_visual_scene url="#Scene"/>
  </scene>
</COLLADA>