<?xml version="1.0" encoding="utf-8"?>
<COLLADA xmlns="http://www.collada.org/2005/11/COLLADASchema" version="1.4.1" xmlns:xsi="http://www.w3.org/2001/XMLSchema-instance">
  <asset>
    <contributor>
      <author>Blender User</author>
      <authoring_tool>Blender 2.80.75 commit date:2019-07-29, commit time:14:47, hash:f6cb5f54494e</authoring_tool>
    </contributor>
    <created>2020-05-10T18:52:08</created>
    <modified>2020-05-10T18:52:08</modified>
    <unit name="meter" meter="1"/>
    <up_axis>Z_UP</up_axis>
  </asset>
  <library_cameras>
    <camera id="Camera-camera" name="Camera">
      <optics>
        <technique_common>
          <perspective>
            <xfov sid="xfov">49.13434</xfov>
            <aspect_ratio>1.777778</aspect_ratio>
            <znear sid="znear">0.1</znear>
            <zfar sid="zfar">100</zfar>
          </perspective>
        </technique_common>
      </optics>
      <extra>
        <technique profile="blender">
          <shiftx sid="shiftx" type="float">0</shiftx>
          <shifty sid="shifty" type="float">0</shifty>
          <dof_distance sid="dof_distance" type="float">0</dof_distance>
        </technique>
      </extra>
    </camera>
  </library_cameras>
  <library_lights>
    <light id="Lamp-light" name="Lamp">
      <technique_common>
        <point>
          <color sid="color">100 100 100</color>
          <constant_attenuation>1</constant_attenuation>
          <linear_attenuation>0</linear_attenuation>
          <quadratic_attenuation>0.00111109</quadratic_attenuation>
        </point>
      </technique_common>
      <extra>
        <technique profile="blender">
          <type sid="type" type="int">0</type>
          <flag sid="flag" type="int">0</flag>
          <mode sid="mode" type="int">1</mode>
          <gamma sid="blender_gamma" type="float">1</gamma>
          <red sid="red" type="float">1</red>
          <green sid="green" type="float">1</green>
          <blue sid="blue" type="float">1</blue>
          <shadow_r sid="blender_shadow_r" type="float">0</shadow_r>
          <shadow_g sid="blender_shadow_g" type="float">0</shadow_g>
          <shadow_b sid="blender_shadow_b" type="float">0</shadow_b>
          <energy sid="blender_energy" type="float">100</energy>
          <dist sid="blender_dist" type="float">29.99998</dist>
          <spotsize sid="spotsize" type="float">75</spotsize>
          <spotblend sid="spotblend" type="float">0.15</spotblend>
          <att1 sid="att1" type="float">0</att1>
          <att2 sid="att2" type="float">1</att2>
          <falloff_type sid="falloff_type" type="int">2</falloff_type>
          <clipsta sid="clipsta" type="float">1.000799</clipsta>
          <clipend sid="clipend" type="float">30.002</clipend>
          <bias sid="bias" type="float">1</bias>
          <soft sid="soft" type="float">3</soft>
          <bufsize sid="bufsize" type="int">2880</bufsize>
          <samp sid="samp" type="int">3</samp>
          <buffers sid="buffers" type="int">1</buffers>
          <area_shape sid="area_shape" type="int">1</area_shape>
          <area_size sid="area_size" type="float">0.1</area_size>
          <area_sizey sid="area_sizey" type="float">0.1</area_sizey>
          <area_sizez sid="area_sizez" type="float">1</area_sizez>
        </technique>
      </extra>
    </light>
  </library_lights>
  <library_effects>
    <effect id="Material-effect">
      <profile_COMMON>
        <technique sid="common">
          <lambert>
            <emission>
              <color sid="emission">0 0 0 1</color>
            </emission>
            <diffuse>
              <color sid="diffuse">0.8 0.8 0.8 1</color>
            </diffuse>
            <reflectivity>
              <float sid="specular">0.5</float>
            </reflectivity>
          </lambert>
        </technique>
      </profile_COMMON>
    </effect>
  </library_effects>
  <library_images/>
  <library_materials>
    <material id="Material-material" name="Material">
      <instance_effect url="#Material-effect"/>
    </material>
  </library_materials>
  <library_geometries>
    <geometry id="Cube-mesh" name="Cube">
      <mesh>
        <source id="Cube-mesh-positions">
          <float_array id="Cube-mesh-positions-array" count="1806">0.07298481 0.05698072 -0.009543836 0.07298481 -0.02128857 -0.009543836 -0.05592936 -0.02128857 -0.009543836 -0.05592936 0.05698072 -0.009543836 0.07298481 0.05698066 0.02728879 0.07298475 -0.02128857 0.02728879 -0.05592936 -0.02128857 0.02728879 -0.05592936 0.05698072 0.02728879 0.07415443 0.05136156 -0.009877979 0.07463324 0.04362255 -0.01001483 0.07481443 0.03520262 -0.01006656 0.07487845 0.02655845 -0.01008486 0.07489401 0.01784604 -0.01008933 0.07487845 0.009133636 -0.01008486 0.07481443 4.89509e-4 -0.01006656 0.07463324 -0.007930397 -0.01001483 0.07415443 -0.0156694 -0.009878039 0.0637297 0.05769085 -0.009878039 0.05098307 0.05798155 -0.01001483 0.03711497 0.05809158 -0.01006656 0.02287751 0.05813044 -0.01008486 0.008527696 0.05813992 -0.01008933 -0.005822062 0.05813044 -0.01008486 -0.02005952 0.05809158 -0.01006656 -0.03392761 0.05798161 -0.01001483 -0.04667425 0.05769091 -0.009878039 0.07415443 0.05769085 -0.006899535 0.0746333 0.05798155 -0.003257632 0.07481443 0.05809158 7.04671e-4 0.07487845 0.05813044 0.004772484 0.07489401 0.05813986 0.008872449 0.07487845 0.05813038 0.01297241 0.07481443 0.05809158 0.01704025 0.0746333 0.05798155 0.02100259 0.07415449 0.05769085 0.02464449 0.0637297 -0.0219987 -0.009877979 0.05098307 -0.02228939 -0.01001483 0.03711497 -0.02239942 -0.01006656 0.02287751 -0.02243828 -0.01008486 0.008527696 -0.02244776 -0.01008933 -0.005822062 -0.02243828 -0.01008486 -0.02005958 -0.02239942 -0.01006656 -0.03392761 -0.02228939 -0.01001483 -0.04667431 -0.0219987 -0.009877979 0.07415443 -0.0219987 -0.006899535 0.07463324 -0.02228945 -0.003257632 0.07481443 -0.02239942 7.04672e-4 0.07487839 -0.02243828 0.004772484 0.07489401 -0.02244776 0.008872449 0.07487839 -0.02243828 0.01297241 0.07481437 -0.02239942 0.01704025 0.07463324 -0.02228945 0.02100259 0.07415443 -0.02199876 0.02464449 -0.05709904 -0.0156694 -0.009877979 -0.05757784 -0.007930338 -0.01001483 -0.05775898 4.89518e-4 -0.01006656 -0.057823 0.009133696 -0.01008486 -0.05783855 0.01784604 -0.01008933 -0.057823 0.02655845 -0.01008486 -0.05775898 0.03520262 -0.01006656 -0.05757784 0.04362255 -0.01001483 -0.05709898 0.05136162 -0.009878039 -0.05709904 -0.0219987 -0.006899535 -0.05757784 -0.02228939 -0.003257632 -0.05775898 -0.02239942 7.04672e-4 -0.057823 -0.02243828 0.004772484 -0.05783861 -0.0224477 0.008872449 -0.057823 -0.02243828 0.01297241 -0.05775904 -0.02239942 0.01704025 -0.05757784 -0.02228939 0.02100259 -0.05709904 -0.0219987 0.02464449 -0.05709898 0.05769091 -0.006899535 -0.05757784 0.05798161 -0.003257632 -0.05775898 0.05809158 7.04672e-4 -0.057823 0.05813044 0.004772484 -0.05783855 0.05813992 0.008872449 -0.057823 0.05813044 0.01297241 -0.05775898 0.05809158 0.01704025 -0.05757784 0.05798161 0.02100259 -0.05709904 0.05769085 0.02464449 0.07415449 0.05136156 0.02762293 0.0746333 0.04362249 0.02775979 0.07481443 0.03520262 0.02781152 0.07487845 0.02655839 0.02782982 0.07489401 0.01784604 0.02783423 0.07487839 0.009133636 0.02782982 0.07481437 4.89486e-4 0.02781152 0.07463324 -0.007930397 0.02775979 0.07415443 -0.01566946 0.02762293 0.06372976 0.05769085 0.02762293 0.05098307 0.05798155 0.02775979 0.03711497 0.05809158 0.02781152 0.02287751 0.05813044 0.02782982 0.008527696 0.05813986 0.02783423 -0.005822062 0.05813044 0.02782982 -0.02005952 0.05809158 0.02781152 -0.03392761 0.05798161 0.02775979 -0.04667431 0.05769085 0.02762293 0.0637297 -0.02199876 0.02762293 0.05098301 -0.02228945 0.02775979 0.03711491 -0.02239942 0.02781152 0.02287745 -0.02243828 0.02782982 0.008527636 -0.02244776 0.02783423 -0.005822122 -0.02243828 0.02782982 -0.02005958 -0.02239942 0.02781152 -0.03392767 -0.02228939 0.02775979 -0.04667431 -0.0219987 0.02762293 -0.05709904 -0.0156694 0.02762293 -0.05757784 -0.007930338 0.02775979 -0.05775904 4.8952e-4 0.02781152 -0.057823 0.009133696 0.02782982 -0.05783861 0.01784604 0.02783423 -0.057823 0.02655845 0.02782982 -0.05775898 0.03520262 0.02781152 -0.05757784 0.04362255 0.02775979 -0.05709904 0.05136156 0.02762293 0.06395167 0.05955183 0.02470785 0.05102819 0.06014412 0.02475327 0.03712481 0.06033867 0.02477526 0.02287971 0.06040191 0.0247842 0.008527696 0.06041669 0.02478659 -0.005824208 0.06040191 0.0247842 -0.02006936 0.06033873 0.02477526 -0.03397274 0.06014412 0.02475327 -0.04689621 0.05955189 0.02470785 0.06411063 0.06014412 0.02101546 0.05107557 0.06087177 0.02102899 0.0371384 0.06111639 0.0210371 0.02288323 0.06119638 0.02104085 0.008527696 0.06121504 0.02104187 -0.005827784 0.06119638 0.02104085 -0.02008295 0.06111639 0.0210371 -0.03402012 0.06087177 0.02102899 -0.04705518 0.06014412 0.02101546 0.06418764 0.06033867 0.01704305 0.05110388 0.06111639 0.01704692 0.03714793 0.0613836 0.01704967 0.02288609 0.06147229 0.0170511 0.008527696 0.06149321 0.01705151 -0.005830645 0.06147229 0.0170511 -0.02009248 0.0613836 0.01704967 -0.03404843 0.06111639 0.01704692 -0.04713219 0.06033873 0.01704305 0.06421893 0.06040191 0.01297301 0.05111706 0.06119638 0.01297402 0.03715294 0.06147229 0.01297485 0.0228877 0.0615648 0.01297533 0.008527696 0.06158673 0.01297545 -0.005832254 0.0615648 0.01297533 -0.02009749 0.06147229 0.01297485 -0.03406161 0.06119638 0.01297402 -0.04716342 0.06040197 0.01297301 0.0642271 0.06041669 0.008872449 0.05112075 0.06121504 0.008872449 0.03715443 0.06149321 0.008872449 0.02288818 0.06158673 0.008872449 0.008527696 0.06160891 0.008872449 -0.005832731 0.06158673 0.008872449 -0.02009892 0.06149321 0.008872449 -0.0340653 0.06121504 0.008872449 -0.04717159 0.06041669 0.008872449 0.06421887 0.06040191 0.004771888 0.05111706 0.06119638 0.004770874 0.03715294 0.06147229 0.00477004 0.0228877 0.0615648 0.004769563 0.008527696 0.06158673 0.004769444 -0.005832254 0.0615648 0.004769563 -0.02009749 0.06147235 0.00477004 -0.03406161 0.06119638 0.004770874 -0.04716342 0.06040197 0.004771888 0.06418764 0.06033867 7.01866e-4 0.05110388 0.06111639 6.97992e-4 0.03714793 0.0613836 6.95256e-4 0.02288609 0.06147229 6.93834e-4 0.008527696 0.06149321 6.93412e-4 -0.005830645 0.06147229 6.93834e-4 -0.02009248 0.0613836 6.95256e-4 -0.03404843 0.06111639 6.97993e-4 -0.04713219 0.06033873 7.01866e-4 0.06411057 0.06014412 -0.003270506 0.05107551 0.06087177 -0.003284037 0.03713834 0.06111639 -0.003292143 0.02288323 0.06119638 -0.003295898 0.008527696 0.06121504 -0.003296971 -0.005827784 0.06119638 -0.003295898 -0.02008289 0.06111639 -0.003292143 -0.03402012 0.06087183 -0.003284037 -0.04705518 0.06014412 -0.003270506 0.06395161 0.05955189 -0.006962895 0.05102813 0.06014412 -0.007008314 0.03712481 0.06033873 -0.007030367 0.02287966 0.06040197 -0.007039248 0.008527696 0.06041669 -0.007041633 -0.005824208 0.06040197 -0.007039248 -0.02006936 0.06033873 -0.007030367 -0.03397274 0.06014412 -0.007008314 -0.04689615 0.05955189 -0.006962895 -0.06016421 -0.01580411 -0.006962895 -0.06113964 -0.007957756 -0.007008314 -0.06146019 4.83556e-4 -0.007030367 -0.06156432 0.009132385 -0.007039248 -0.06158864 0.01784604 -0.007041633 -0.06156432 0.02655977 -0.007039248 -0.06146013 0.03520858 -0.007030367 -0.06113964 0.04364991 -0.007008314 -0.06016421 0.05149632 -0.006962895 -0.06113964 -0.01590067 -0.003270506 -0.06233817 -0.007986485 -0.003284037 -0.06274104 4.75325e-4 -0.003292143 -0.06287276 0.009130179 -0.003295898 -0.06290358 0.01784604 -0.003296911 -0.06287276 0.02656191 -0.003295898 -0.06274104 0.0352168 -0.003292143 -0.06233817 0.0436787 -0.003284037 -0.06113964 0.05159282 -0.003270506 -0.06146019 -0.0159474 7.01866e-4 -0.06274104 -0.008003711 6.97993e-4 -0.06318116 4.69509e-4 6.95256e-4 -0.06332731 0.009128451 6.93835e-4 -0.0633617 0.01784604 6.93412e-4 -0.06332725 0.02656364 6.93835e-4 -0.0631811 0.03522264 6.95256e-4 -0.06274104 0.04369592 6.97993e-4 -0.06146013 0.05163961 7.01866e-4 -0.06156432 -0.01596641 0.004771888 -0.06287282 -0.008011698 0.004770874 -0.06332731 4.6649e-4 0.00477004 -0.06347966 0.009127497 0.004769563 -0.06351572 0.01784604 0.004769444 -0.0634796 0.02656465 0.004769563 -0.06332725 0.03522568 0.00477004 -0.06287276 0.04370391 0.004770874 -0.06156432 0.05165857 0.004771888 -0.06158864 -0.01597136 0.008872449 -0.06290358 -0.008013963 0.008872449 -0.0633617 4.65589e-4 0.008872449 -0.06351572 0.009127199 0.008872449 -0.06355226 0.01784604 0.008872449 -0.06351572 0.02656495 0.008872449 -0.0633617 0.03522658 0.008872449 -0.06290358 0.04370611 0.008872449 -0.06158864 0.05166351 0.008872449 -0.06156432 -0.01596641 0.01297301 -0.06287282 -0.008011698 0.01297402 -0.06332731 4.66486e-4 0.01297485 -0.06347966 0.009127497 0.01297533 -0.06351572 0.01784604 0.01297545 -0.0634796 0.02656465 0.01297533 -0.06332731 0.03522568 0.01297485 -0.06287276 0.04370391 0.01297402 -0.06156432 0.05165857 0.01297301 -0.06146019 -0.0159474 0.01704305 -0.06274104 -0.008003711 0.01704692 -0.06318116 4.69506e-4 0.01704967 -0.06332731 0.009128451 0.0170511 -0.0633617 0.01784604 0.01705151 -0.06332731 0.02656364 0.0170511 -0.06318116 0.03522264 0.01704967 -0.06274104 0.04369592 0.01704692 -0.06146013 0.05163961 0.01704305 -0.0611397 -0.01590067 0.02101546 -0.06233823 -0.007986485 0.02102899 -0.06274104 4.75325e-4 0.0210371 -0.06287282 0.009130179 0.02104085 -0.06290358 0.01784604 0.02104187 -0.06287282 0.02656191 0.02104085 -0.06274104 0.0352168 0.0210371 -0.06233817 0.0436787 0.02102899 -0.06113964 0.05159282 0.02101546 -0.06016421 -0.01580411 0.02470785 -0.0611397 -0.007957756 0.02475327 -0.06146019 4.83558e-4 0.02477526 -0.06156432 0.009132385 0.0247842 -0.06158864 0.01784604 0.02478659 -0.06156432 0.02655977 0.0247842 -0.06146019 0.03520858 0.02477526 -0.06113964 0.04364991 0.02475327 -0.06016421 0.05149632 0.02470785 0.06395161 -0.02385973 -0.006962895 0.05102813 -0.02445197 -0.007008314 0.03712481 -0.02464658 -0.007030367 0.02287966 -0.02470976 -0.007039248 0.008527696 -0.02472454 -0.007041633 -0.005824267 -0.02470976 -0.007039248 -0.02006936 -0.02464652 -0.007030308 -0.03397274 -0.02445197 -0.007008314 -0.04689621 -0.02385973 -0.006962895 0.06411057 -0.02445197 -0.003270506 0.05107551 -0.02517962 -0.003284037 0.03713834 -0.02542424 -0.003292143 0.02288323 -0.02550423 -0.003295898 0.008527696 -0.02552288 -0.003296911 -0.005827844 -0.02550423 -0.003295898 -0.02008295 -0.02542424 -0.003292143 -0.03402012 -0.02517962 -0.003284037 -0.04705518 -0.02445197 -0.003270506 0.06418764 -0.02464658 7.01866e-4 0.05110388 -0.02542424 6.97992e-4 0.03714793 -0.02569144 6.95256e-4 0.02288609 -0.02578014 6.93835e-4 0.008527696 -0.02580106 6.93412e-4 -0.005830645 -0.02578014 6.93835e-4 -0.02009254 -0.02569144 6.95256e-4 -0.03404849 -0.02542424 6.97993e-4 -0.04713219 -0.02464652 7.01866e-4 0.06421887 -0.02470982 0.004771888 0.051117 -0.02550423 0.004770874 0.03715288 -0.0257802 0.00477004 0.0228877 -0.02587264 0.004769563 0.008527696 -0.02589458 0.004769444 -0.005832254 -0.02587264 0.004769563 -0.02009749 -0.02578014 0.00477004 -0.03406161 -0.02550423 0.004770874 -0.04716348 -0.02470976 0.004771888 0.06422704 -0.02472454 0.008872449 0.05112069 -0.02552288 0.008872449 0.03715437 -0.02580106 0.008872449 0.02288818 -0.02589458 0.008872449 0.008527696 -0.02591675 0.008872449 -0.005832791 -0.02589458 0.008872449 -0.02009898 -0.02580106 0.008872449 -0.0340653 -0.02552288 0.008872449 -0.04717165 -0.02472454 0.008872449 0.06421887 -0.02470982 0.01297301 0.051117 -0.02550423 0.01297402 0.03715288 -0.0257802 0.01297485 0.02288764 -0.02587264 0.01297533 0.008527636 -0.02589458 0.01297545 -0.005832254 -0.02587264 0.01297533 -0.02009749 -0.02578014 0.01297485 -0.03406161 -0.02550423 0.01297402 -0.04716348 -0.02470976 0.01297301 0.06418758 -0.02464658 0.01704305 0.05110388 -0.02542424 0.01704692 0.03714793 -0.02569144 0.01704967 0.02288603 -0.02578014 0.0170511 0.008527636 -0.02580106 0.01705151 -0.005830705 -0.02578014 0.0170511 -0.02009254 -0.02569144 0.01704967 -0.03404849 -0.02542424 0.01704692 -0.04713219 -0.02464652 0.01704305 0.06411057 -0.02445197 0.02101546 0.05107551 -0.02517962 0.02102899 0.03713834 -0.02542424 0.0210371 0.02288323 -0.02550423 0.02104085 0.008527636 -0.02552288 0.02104187 -0.005827844 -0.02550423 0.02104085 -0.02008295 -0.02542424 0.0210371 -0.03402012 -0.02517962 0.02102899 -0.04705518 -0.02445197 0.02101546 0.06395161 -0.02385973 0.02470785 0.05102813 -0.02445197 0.02475327 0.03712475 -0.02464658 0.02477526 0.02287966 -0.02470982 0.0247842 0.008527636 -0.02472454 0.02478659 -0.005824267 -0.02470976 0.0247842 -0.02006942 -0.02464658 0.02477526 -0.03397274 -0.02445197 0.02475327 -0.04689621 -0.02385973 0.02470785 0.07721966 0.05149632 -0.006962895 0.07819509 0.04364991 -0.007008314 0.07851558 0.03520858 -0.007030367 0.07861977 0.02655977 -0.007039248 0.07864403 0.01784604 -0.007041633 0.07861977 0.009132325 -0.007039248 0.07851558 4.83543e-4 -0.007030367 0.07819509 -0.007957756 -0.007008314 0.07721966 -0.01580417 -0.006962895 0.07819509 0.05159282 -0.003270506 0.07939362 0.0436787 -0.003284037 0.07979649 0.0352168 -0.003292143 0.07992821 0.02656191 -0.003295898 0.07995897 0.01784604 -0.003296971 0.07992821 0.009130179 -0.003295898 0.07979643 4.75308e-4 -0.003292143 0.07939362 -0.007986545 -0.003284037 0.07819509 -0.01590067 -0.003270506 0.07851558 0.05163955 7.01865e-4 0.07979649 0.04369586 6.97992e-4 0.08023655 0.03522264 6.95255e-4 0.0803827 0.02656364 6.93834e-4 0.08041709 0.01784604 6.93412e-4 0.0803827 0.009128451 6.93834e-4 0.08023655 4.69487e-4 6.95256e-4 0.07979643 -0.008003711 6.97993e-4 0.07851558 -0.01594746 7.01866e-4 0.07861977 0.05165857 0.004771888 0.07992821 0.04370385 0.004770874 0.0803827 0.03522562 0.00477004 0.08053505 0.02656459 0.004769563 0.08057111 0.01784604 0.004769444 0.08053505 0.009127438 0.004769563 0.0803827 4.66468e-4 0.00477004 0.07992821 -0.008011698 0.004770874 0.07861971 -0.01596641 0.004771888 0.07864409 0.05166351 0.008872449 0.07995897 0.04370611 0.008872449 0.08041715 0.03522652 0.008872449 0.08057111 0.02656489 0.008872449 0.08060765 0.01784604 0.008872449 0.08057111 0.00912714 0.008872449 0.08041709 4.65568e-4 0.008872449 0.07995897 -0.008013963 0.008872449 0.07864403 -0.01597136 0.008872449 0.07861977 0.05165857 0.01297301 0.07992821 0.04370385 0.01297402 0.0803827 0.03522562 0.01297485 0.08053505 0.02656459 0.01297533 0.08057111 0.01784604 0.01297545 0.08053505 0.009127438 0.01297533 0.0803827 4.66462e-4 0.01297485 0.07992821 -0.008011758 0.01297402 0.07861971 -0.01596641 0.01297301 0.07851558 0.05163955 0.01704305 0.07979649 0.04369586 0.01704692 0.08023655 0.03522258 0.01704967 0.0803827 0.02656364 0.0170511 0.08041709 0.01784604 0.01705151 0.0803827 0.009128451 0.0170511 0.08023655 4.69476e-4 0.01704967 0.07979643 -0.008003771 0.01704692 0.07851558 -0.01594746 0.01704305 0.07819509 0.05159282 0.02101546 0.07939362 0.04367864 0.02102899 0.07979649 0.0352168 0.0210371 0.07992821 0.02656191 0.02104085 0.07995897 0.01784604 0.02104187 0.07992821 0.009130179 0.02104085 0.07979643 4.75293e-4 0.0210371 0.07939362 -0.007986545 0.02102899 0.07819503 -0.01590067 0.02101546 0.07721966 0.05149626 0.02470785 0.07819509 0.04364991 0.02475327 0.07851558 0.03520858 0.02477526 0.07861971 0.02655971 0.0247842 0.07864403 0.01784604 0.02478659 0.07861971 0.009132325 0.0247842 0.07851558 4.83524e-4 0.02477526 0.07819503 -0.007957756 0.02475327 0.0772196 -0.01580417 0.02470785 0.06395167 0.05149626 0.0284987 0.06411063 0.04364991 0.02877742 0.06418764 0.03520858 0.02886897 0.06421887 0.02655971 0.02889877 0.06422704 0.01784604 0.02890568 0.06421887 0.009132325 0.02889877 0.06418758 4.83524e-4 0.02886903 0.06411057 -0.007957756 0.02877742 0.06395161 -0.01580417 0.0284987 0.05102819 0.05159282 0.02877742 0.05107557 0.04367864 0.02911984 0.05110388 0.0352168 0.02923494 0.05111706 0.02656191 0.02927261 0.05112069 0.01784604 0.02928137 0.051117 0.009130179 0.02927261 0.05110388 4.75297e-4 0.02923494 0.05107551 -0.007986545 0.02911984 0.05102813 -0.01590067 0.02877742 0.03712481 0.05163955 0.02886903 0.0371384 0.04369586 0.02923494 0.03714793 0.03522264 0.02936071 0.03715288 0.02656364 0.02940243 0.03715437 0.01784604 0.02941226 0.03715288 0.009128451 0.02940249 0.03714793 4.69487e-4 0.02936071 0.03713834 -0.008003711 0.02923494 0.03712475 -0.01594746 0.02886903 0.02287966 0.05165857 0.02889877 0.02288323 0.04370385 0.02927261 0.02288609 0.03522562 0.02940249 0.0228877 0.02656459 0.029446 0.02288818 0.01784604 0.02945631 0.02288764 0.009127497 0.029446 0.02288609 4.6647e-4 0.02940249 0.02288323 -0.008011698 0.02927261 0.02287966 -0.01596641 0.02889877 0.008527696 0.05166351 0.02890568 0.008527696 0.04370611 0.02928137 0.008527696 0.03522652 0.02941226 0.008527696 0.02656489 0.02945631 0.008527696 0.01784604 0.02946674 0.008527696 0.009127199 0.02945631 0.008527636 4.65576e-4 0.02941226 0.008527636 -0.008013963 0.02928137 0.008527636 -0.01597136 0.02890568 -0.005824208 0.05165857 0.02889877 -0.005827784 0.04370385 0.02927261 -0.005830645 0.03522562 0.02940249 -0.005832254 0.02656459 0.029446 -0.005832791 0.01784604 0.02945631 -0.005832254 0.009127497 0.029446 -0.005830705 4.66477e-4 0.02940249 -0.005827844 -0.008011698 0.02927261 -0.005824267 -0.01596641 0.02889877 -0.02006936 0.05163955 0.02886903 -0.02008295 0.04369586 0.02923494 -0.02009254 0.03522264 0.02936071 -0.02009749 0.02656364 0.02940249 -0.02009898 0.01784604 0.02941226 -0.02009749 0.009128451 0.02940249 -0.02009254 4.69498e-4 0.02936071 -0.02008295 -0.008003711 0.02923494 -0.02006942 -0.0159474 0.02886903 -0.03397274 0.05159282 0.02877742 -0.03402012 0.0436787 0.02911984 -0.03404849 0.0352168 0.02923494 -0.03406161 0.02656191 0.02927261 -0.0340653 0.01784604 0.02928137 -0.03406161 0.009130179 0.02927261 -0.03404849 4.75317e-4 0.02923494 -0.03402012 -0.007986485 0.02911984 -0.03397274 -0.01590067 0.02877742 -0.04689621 0.05149632 0.0284987 -0.04705518 0.04364991 0.02877742 -0.04713219 0.03520858 0.02886903 -0.04716348 0.02655977 0.02889877 -0.04717165 0.01784604 0.02890568 -0.04716348 0.009132325 0.02889877 -0.04713219 4.8355e-4 0.02886903 -0.04705518 -0.007957756 0.02877742 -0.04689621 -0.01580417 0.0284987 0.06395161 0.05149632 -0.01075375 0.05102813 0.05159282 -0.01103246 0.03712481 0.05163961 -0.01112407 0.02287966 0.05165857 -0.01115381 0.008527696 0.05166351 -0.01116073 -0.005824208 0.05165857 -0.01115381 -0.02006936 0.05163961 -0.01112407 -0.03397274 0.05159282 -0.01103246 -0.04689621 0.05149632 -0.01075381 0.06411057 0.04364991 -0.01103246 0.05107551 0.0436787 -0.01137489 0.03713834 0.04369586 -0.01148998 0.02288323 0.04370385 -0.01152765 0.008527696 0.04370611 -0.01153647 -0.005827784 0.04370391 -0.01152765 -0.02008289 0.04369592 -0.01148998 -0.03402012 0.0436787 -0.01137489 -0.04705518 0.04364991 -0.01103246 0.06418764 0.03520858 -0.01112407 0.05110388 0.0352168 -0.01148998 0.03714793 0.03522264 -0.01161575 0.02288609 0.03522562 -0.01165753 0.008527696 0.03522658 -0.01166737 -0.005830645 0.03522568 -0.01165753 -0.02009248 0.03522264 -0.01161575 -0.03404843 0.0352168 -0.01148998 -0.04713219 0.03520858 -0.01112407 0.06421887 0.02655977 -0.01115381 0.05111706 0.02656191 -0.01152765 0.03715294 0.02656364 -0.01165753 0.0228877 0.02656465 -0.01170104 0.008527696 0.02656495 -0.01171135 -0.005832254 0.02656465 -0.01170104 -0.02009749 0.02656364 -0.01165753 -0.03406161 0.02656191 -0.01152765 -0.04716342 0.02655977 -0.01115381 0.06422704 0.01784604 -0.01116073 0.05112075 0.01784604 -0.01153647 0.03715437 0.01784604 -0.01166737 0.02288818 0.01784604 -0.01171135 0.008527696 0.01784604 -0.01172178 -0.005832731 0.01784604 -0.01171135 -0.02009898 0.01784604 -0.01166737 -0.0340653 0.01784604 -0.01153647 -0.04717159 0.01784604 -0.01116073 0.06421887 0.009132325 -0.01115381 0.05111706 0.009130179 -0.01152765 0.03715288 0.009128451 -0.01165753 0.0228877 0.009127497 -0.01170104 0.008527696 0.009127199 -0.01171135 -0.005832254 0.009127497 -0.01170104 -0.02009749 0.009128451 -0.01165753 -0.03406161 0.009130179 -0.01152765 -0.04716348 0.009132385 -0.01115381 0.06418764 4.83546e-4 -0.01112407 0.05110388 4.75319e-4 -0.01148998 0.03714793 4.69502e-4 -0.01161575 0.02288609 4.66485e-4 -0.01165753 0.008527696 4.65587e-4 -0.01166737 -0.005830645 4.66486e-4 -0.01165753 -0.02009254 4.69506e-4 -0.01161575 -0.03404849 4.75321e-4 -0.01148998 -0.04713219 4.83552e-4 -0.01112407 0.06411057 -0.007957756 -0.01103246 0.05107551 -0.007986485 -0.01137489 0.03713834 -0.008003711 -0.01148998 0.02288323 -0.008011698 -0.01152765 0.008527696 -0.008013963 -0.01153647 -0.005827844 -0.008011698 -0.01152765 -0.02008295 -0.008003711 -0.01148998 -0.03402012 -0.007986485 -0.01137489 -0.04705518 -0.007957756 -0.01103246 0.06395161 -0.01580417 -0.01075381 0.05102813 -0.01590067 -0.01103246 0.03712481 -0.0159474 -0.01112407 0.02287966 -0.01596641 -0.01115381 0.008527696 -0.01597136 -0.01116073 -0.005824267 -0.01596641 -0.01115381 -0.02006936 -0.0159474 -0.01112407 -0.03397274 -0.01590067 -0.01103246 -0.04689621 -0.01580411 -0.01075375</float_array>
          <technique_common>
            <accessor source="#Cube-mesh-positions-array" count="602" stride="3">
              <param name="X" type="float"/>
              <param name="Y" type="float"/>
              <param name="Z" type="float"/>
            </accessor>
          </technique_common>
        </source>
        <source id="Cube-mesh-normals">
          <float_array id="Cube-mesh-normals-array" count="3600">-0.08627688 -0.07703357 -0.9932886 -0.04656106 -0.1414685 0.9888473 0.6439968 -0.3257477 0.6922114 -0.1716198 -0.9297953 0.3256183 -0.643997 0.3257478 0.6922112 -0.1716183 0.9297945 -0.3256216 -0.0837506 0.8370171 0.5407295 -0.1780134 0.9703826 0.1633061 -0.2010954 0.9782003 0.05181807 -0.2068591 0.9782268 0.01678788 -0.2084157 0.9780324 0.003935873 -0.2087424 0.977966 -0.003050446 -0.208401 0.9779621 -0.01262056 -0.2067547 0.9777082 -0.03659558 -0.2003331 0.9741818 -0.1040983 0.08375132 0.8370171 0.5407295 0.02477216 0.8113802 0.5839936 0.008595824 0.8037589 0.5948931 0.002955317 0.8015936 0.5978621 7.14254e-4 0.8015977 0.5978634 -7.13708e-4 0.801597 0.5978643 -0.002955317 0.8015937 0.597862 -0.00859493 0.8037577 0.5948948 -0.02477252 0.8113827 0.5839902 0.1780135 0.9703828 0.1633047 0.04559946 0.9803116 0.1921193 0.01402384 0.9789325 0.203702 0.004472851 0.9782033 0.2076016 0.001039624 0.978019 0.2085133 -0.001039147 0.9780191 0.2085131 -0.004472374 0.9782035 0.2076005 -0.01402372 0.9789328 0.2037011 -0.04559904 0.9803116 0.1921198 0.2010958 0.9782002 0.05181777 0.05569612 0.9965454 0.0616061 0.01754611 0.9976058 0.06689494 0.005616486 0.9976007 0.0690025 0.001303553 0.9975786 0.06953704 -0.001303017 0.9975786 0.0695371 -0.005616486 0.9976009 0.0690003 -0.01754558 0.9976059 0.06689423 -0.05569618 0.9965452 0.06160962 0.2068596 0.9782267 0.01678955 0.05932796 0.9980423 0.01979392 0.01914268 0.9995793 0.02178919 0.006222426 0.9997231 0.02269268 0.001455247 0.999736 0.02293258 -0.00145477 0.999736 0.02293455 -0.006222426 0.9997232 0.02268868 -0.01914221 0.9995793 0.02179259 -0.05932736 0.9980424 0.01979315 0.2084173 0.9780321 0.003935813 0.06052368 0.9981562 0.00459963 0.01975733 0.9997918 0.005098044 0.00648415 0.9999648 0.005338549 0.001524865 0.9999843 0.005405724 -0.001524865 0.9999843 0.005405783 -0.006483614 0.9999648 0.00533837 -0.01975679 0.9997919 0.005099654 -0.06052368 0.9981562 0.004599273 0.2087435 0.9779657 -0.003050982 0.06080043 0.9981431 -0.003714501 0.01991224 0.9997913 -0.004571557 0.006554007 0.9999656 -0.005093932 0.001544475 0.9999846 -0.005338609 -0.001544475 0.9999846 -0.00533837 -0.00655353 0.9999656 -0.005091547 -0.01991176 0.9997913 -0.004569351 -0.06079977 0.9981431 -0.00371325 0.2084015 0.9779621 -0.0126186 0.06051754 0.9980395 -0.01596873 0.01975512 0.9996108 -0.01969766 0.00648272 0.9997418 -0.02178013 0.001524686 0.9997416 -0.02268713 -0.001524686 0.9997415 -0.02268689 -0.006482183 0.9997418 -0.02177929 -0.01975405 0.9996108 -0.01969689 -0.06051754 0.9980395 -0.01597076 0.2067543 0.9777082 -0.0365954 0.05927425 0.9969894 -0.04998701 0.0191183 0.9979284 -0.06142842 0.006215035 0.997742 -0.06687539 0.001453518 0.9976156 -0.0689997 -0.001453518 0.9976159 -0.06899768 -0.006214022 0.9977422 -0.06687289 -0.0191183 0.9979284 -0.06142932 -0.05927371 0.9969894 -0.0499885 0.2003336 0.9741815 -0.1040998 0.05518233 0.9855009 -0.160446 0.0173313 0.9812523 -0.1919466 0.005547761 0.9790204 -0.2036874 0.001288533 0.9782137 -0.207597 -0.001287996 0.978213 -0.2076003 -0.005547225 0.97902 -0.2036891 -0.0173313 0.9812526 -0.1919457 -0.05518227 0.9855014 -0.160443 0.1716191 0.9297955 -0.3256182 0.04042786 0.8407937 -0.5398442 0.01228493 0.8116576 -0.5840044 0.003941118 0.8037883 -0.5949026 9.21111e-4 0.8011286 -0.5984917 -9.21204e-4 0.8011294 -0.5984905 -0.003940582 0.803788 -0.5949027 -0.01228445 0.8116573 -0.5840048 -0.04042798 0.8407953 -0.5398417 -0.8726583 0.2079305 -0.4418512 -0.8853167 0.4396206 -0.1514871 -0.8721388 0.4863382 -0.0533775 -0.8672639 0.4975088 -0.01839655 -0.8657399 0.5004746 -0.004445731 -0.865379 0.5010852 0.005736708 -0.8654872 0.5003327 0.02448254 -0.8649149 0.4961886 0.07562589 -0.8484461 0.473498 0.236514 -0.87266 -0.2079296 -0.4418483 -0.6868107 -0.05530416 -0.7247292 -0.6448261 -0.01857084 -0.7641037 -0.6342206 -0.006329536 -0.7731263 -0.6313098 -0.001526117 -0.7755293 -0.6313117 0.001525402 -0.7755277 -0.634221 0.006331682 -0.773126 -0.6448261 0.01857203 -0.7641037 -0.6868122 0.05530416 -0.7247279 -0.8853165 -0.439621 -0.1514866 -0.9589792 -0.1207031 -0.2564949 -0.9511893 -0.03691393 -0.3063925 -0.9459359 -0.01172488 -0.3241418 -0.9439889 -0.002720594 -0.3299664 -0.9439888 0.002723038 -0.3299664 -0.9459352 0.01172614 -0.3241438 -0.9511893 0.03691488 -0.3063926 -0.9589787 0.1207038 -0.2564968 -0.8721392 -0.4863375 -0.05337613 -0.9854354 -0.1493752 -0.08126741 -0.9937829 -0.04740726 -0.1007384 -0.9938471 -0.0151776 -0.1097167 -0.9935677 -0.003520727 -0.1131857 -0.9935677 0.003522455 -0.1131857 -0.993847 0.01517701 -0.1097167 -0.9937826 0.04740732 -0.1007403 -0.9854356 0.1493743 -0.08126562 -0.8672623 -0.4975116 -0.01839649 -0.9869133 -0.159143 -0.02599549 -0.9981292 -0.05185461 -0.03239428 -0.9992147 -0.01687008 -0.03585475 -0.9992944 -0.003944873 -0.03735375 -0.9992944 0.003946959 -0.03735375 -0.9992148 0.01687139 -0.03585106 -0.9981292 0.0518552 -0.03239065 -0.9869126 0.1591463 -0.02599751 -0.8657394 -0.5004753 -0.004446864 -0.9867218 -0.1623076 -0.006048083 -0.9985311 -0.05352985 -0.008386373 -0.9998068 -0.01758581 -0.0087924 -0.9999518 -0.004136025 -0.008904635 -0.9999519 0.004137873 -0.008904635 -0.9998067 0.01758712 -0.00879234 -0.998531 0.05353033 -0.00838989 -0.9867216 0.1623077 -0.006049871 -0.8653792 -0.5010848 0.005736172 -0.9865924 -0.1630317 0.007490515 -0.9985156 -0.05394726 0.007520437 -0.9998068 -0.01777654 0.008389234 -0.9999526 -0.00418812 0.008792698 -0.9999526 0.004189729 0.008792698 -0.9998068 0.01777654 0.008389174 -0.9985156 0.05394732 0.007520377 -0.9865925 0.1630315 0.007490217 -0.8654879 -0.5003315 0.02447783 -0.9862267 -0.16223 0.03222209 -0.9979247 -0.05350136 0.03583198 -0.9991478 -0.01757568 0.03734791 -0.9992785 -0.004136025 0.03775513 -0.9992785 0.004137516 0.03775513 -0.999148 0.01757597 0.03734421 -0.9979249 0.05349934 0.03583204 -0.986227 0.1622286 0.03222179 -0.8649148 -0.4961886 0.07562655 -0.9822871 -0.1584334 0.1000555 -0.992632 -0.05159258 0.1096357 -0.9934335 -0.01678657 0.1131723 -0.9934662 -0.003926455 0.1140598 -0.9934662 0.003926873 0.1140599 -0.9934331 0.016788 0.1131761 -0.9926319 0.05159336 0.109636 -0.9822863 0.1584367 0.1000577 -0.8484459 -0.4734973 0.2365164 -0.9417952 -0.1431477 0.3041884 -0.9450078 -0.04529786 0.3238958 -0.9438908 -0.01451349 0.3299386 -0.9435153 -0.003369569 0.3313119 -0.9435153 0.003371298 0.331312 -0.9438908 0.01451385 0.3299389 -0.9450079 0.04529869 0.3238953 -0.9417953 0.1431484 0.3041878 -0.6439989 -0.3257458 0.6922104 -0.6423473 -0.08426558 0.7617673 -0.633998 -0.02608692 0.7728947 -0.6312871 -0.008402884 0.7755038 -0.6306902 -0.001967072 0.7760322 -0.6306902 0.001967787 0.7760322 -0.6312879 0.008403122 0.7755032 -0.6339983 0.02608788 0.7728943 -0.6423482 0.08426493 0.7617665 -0.08375084 -0.8370167 -0.54073 -0.178014 -0.9703826 -0.1633058 -0.2010958 -0.9782001 -0.05181676 -0.2068593 -0.9782267 -0.01678794 -0.2084159 -0.9780324 -0.003935873 -0.2087423 -0.977966 0.003050148 -0.2084016 -0.977962 0.0126183 -0.2067551 -0.9777081 0.0365954 -0.2003336 -0.9741815 0.1041 0.08375072 -0.8370171 -0.5407295 0.02477222 -0.8113813 -0.5839921 0.008595228 -0.8037573 -0.5948955 0.002955615 -0.8015936 -0.5978621 7.14133e-4 -0.8015972 -0.597864 -7.14044e-4 -0.8015986 -0.5978622 -0.002955794 -0.801595 -0.5978602 -0.008595287 -0.8037587 -0.5948936 -0.0247724 -0.811381 -0.5839926 0.1780142 -0.9703823 -0.163307 0.04559922 -0.9803113 -0.1921211 0.01402372 -0.9789327 -0.2037012 0.004472374 -0.9782035 -0.2076003 0.001039445 -0.9780191 -0.2085126 -0.001039922 -0.9780191 -0.2085131 -0.004472613 -0.9782028 -0.2076035 -0.01402348 -0.9789328 -0.2037011 -0.04559922 -0.9803116 -0.1921198 0.2010954 -0.9782001 -0.05181956 0.05569589 -0.9965454 -0.06160587 0.01754558 -0.9976059 -0.06689429 0.005616247 -0.9976007 -0.06900268 0.001303553 -0.9975786 -0.06953525 -0.001303553 -0.9975786 -0.06953614 -0.005617022 -0.9976009 -0.06900036 -0.01754558 -0.9976058 -0.06689429 -0.05569595 -0.9965454 -0.06160515 0.2068601 -0.9782266 -0.01678669 0.05932676 -0.9980424 -0.01979506 0.01914244 -0.9995793 -0.02179175 0.006222426 -0.9997232 -0.02268886 0.00145471 -0.999736 -0.02293306 -0.001455545 -0.999736 -0.02293258 -0.006222426 -0.9997233 -0.02268868 -0.01914268 -0.9995793 -0.02178955 -0.05932736 -0.9980424 -0.01979422 0.2084161 -0.9780324 -0.003935098 0.06052368 -0.9981562 -0.004599869 0.01975703 -0.9997918 -0.005098581 0.006483376 -0.9999648 -0.00533837 0.001524627 -0.9999843 -0.005405485 -0.001525402 -0.9999843 -0.005404829 -0.006483852 -0.9999648 -0.005339384 -0.01975733 -0.9997919 -0.005099654 -0.06052345 -0.9981563 -0.004601418 0.2087416 -0.9779661 0.003049671 0.06080031 -0.9981431 0.003712296 0.019912 -0.9997913 0.004571557 0.00655353 -0.9999656 0.005094945 0.001543998 -0.9999846 0.005335688 -0.001544475 -0.9999846 0.005336523 -0.006554007 -0.9999656 0.005094349 -0.019912 -0.9997913 0.00457102 -0.06080061 -0.998143 0.003713726 0.2084011 -0.977962 0.01261991 0.06051701 -0.9980395 0.01596981 0.01975429 -0.9996109 0.01969665 0.006482958 -0.9997418 0.02177911 0.00152415 -0.9997414 0.0226891 -0.001524925 -0.9997414 0.02268779 -0.006483197 -0.9997418 0.02177929 -0.01975429 -0.9996109 0.01969611 -0.06051784 -0.9980395 0.01596885 0.2067554 -0.9777082 0.03659278 0.05927324 -0.9969894 0.04999047 0.01911836 -0.9979283 0.06143051 0.006214261 -0.9977419 0.06687742 0.00145328 -0.9976156 0.06900072 -0.001453518 -0.9976157 0.06899964 -0.006215035 -0.9977421 0.0668742 -0.0191183 -0.9979282 0.0614317 -0.05927401 -0.9969893 0.04998922 0.2003328 -0.9741815 0.1041021 0.05518138 -0.9855018 0.1604411 0.01733106 -0.9812532 0.1919423 0.005547463 -0.9790205 0.2036864 0.001287996 -0.9782131 0.2075991 -0.001287996 -0.9782131 0.2075993 -0.005547761 -0.9790201 0.2036884 -0.01733189 -0.981253 0.1919432 -0.05518239 -0.9855016 0.1604417 0.1716197 -0.929795 0.3256192 0.04042702 -0.8407939 0.5398438 0.0122841 -0.8116592 0.5840023 0.003940939 -0.8037884 0.5949022 9.20713e-4 -0.8011301 0.5984898 -9.20945e-4 -0.8011301 0.5984898 -0.003941416 -0.803789 0.5949014 -0.01228427 -0.8116576 0.5840043 -0.04042798 -0.8407938 0.539844 0.872662 -0.2079294 -0.4418446 0.8853153 -0.4396223 -0.1514896 0.8721396 -0.486337 -0.05337464 0.8672634 -0.4975096 -0.01839703 0.86574 -0.5004744 -0.004446685 0.8653792 -0.5010848 0.005737662 0.8654879 -0.5003312 0.02448254 0.864915 -0.4961883 0.07562661 0.8484467 -0.4734963 0.236515 0.8726599 0.2079279 -0.4418491 0.686811 0.05530279 -0.7247292 0.6448231 0.01857179 -0.7641063 0.6342183 0.006330788 -0.7731282 0.6313102 0.001525998 -0.775529 0.6313101 -0.001526117 -0.775529 0.6342203 -0.006331682 -0.7731266 0.6448253 -0.01857197 -0.7641044 0.6868113 -0.05530315 -0.7247288 0.8853167 0.4396201 -0.151488 0.9589785 0.1207044 -0.256497 0.9511899 0.03691548 -0.3063904 0.9459362 0.01172554 -0.3241409 0.9439892 0.002721071 -0.3299655 0.9439892 -0.002720475 -0.3299655 0.9459362 -0.01172703 -0.3241411 0.9511899 -0.03691405 -0.3063907 0.9589795 -0.1207031 -0.2564936 0.8721398 0.4863364 -0.05337768 0.9854354 0.1493745 -0.08126747 0.9937828 0.04740703 -0.1007392 0.9938471 0.01517653 -0.1097167 0.9935681 0.00352025 -0.113182 0.9935681 -0.003520786 -0.1131821 0.993847 -0.01517868 -0.1097167 0.9937828 -0.04740732 -0.1007394 0.9854354 -0.149376 -0.08126389 0.8672633 0.4975098 -0.01839649 0.986913 0.1591449 -0.02599543 0.9981292 0.05185288 -0.03239434 0.9992149 0.01686954 -0.03584742 0.9992944 0.003946125 -0.03735375 0.9992945 -0.003946959 -0.03735011 0.999215 -0.01687139 -0.03584742 0.9981293 -0.05185526 -0.03238695 0.9869128 -0.1591463 -0.02599543 0.8657397 0.500475 -0.004441142 0.9867213 0.1623097 -0.006048262 0.9985312 0.05352652 -0.00838983 0.9998068 0.01758748 -0.008788764 0.9999519 0.004136025 -0.008901 0.9999519 -0.004137039 -0.008901 0.9998067 -0.01758837 -0.0087924 0.9985311 -0.05352878 -0.008390009 0.986722 -0.1623061 -0.006048202 0.8653781 0.5010867 0.005739271 0.9865927 0.1630299 0.007490396 0.9985156 0.05394738 0.007520377 0.9998068 0.01777493 0.00839281 0.9999526 0.004189729 0.008789062 0.9999526 -0.004189729 0.008792698 0.9998068 -0.01777654 0.00839281 0.9985154 -0.05394893 0.007524013 0.9865925 -0.1630316 0.007493853 0.8654886 0.5003301 0.02448081 0.986227 0.1622285 0.03222209 0.9979249 0.05349808 0.03583204 0.9991476 0.01757729 0.03735154 0.9992936 0.004134654 0.03735375 0.9992785 -0.004135966 0.03775513 0.9991477 -0.01757663 0.03735148 0.9979248 -0.05350011 0.03583192 0.986227 -0.1622281 0.03222537 0.8649147 0.4961889 0.07562583 0.9822867 0.158435 0.100056 0.9926325 0.05159091 0.1096319 0.9934335 0.01678663 0.1131727 0.9934662 0.003926455 0.1140598 0.9934662 -0.003927946 0.1140598 0.9934335 -0.01678633 0.1131725 0.9926319 -0.05159401 0.1096357 0.9822869 -0.1584357 0.1000527 0.8484475 0.4734967 0.2365117 0.9417955 0.1431465 0.3041881 0.9450075 0.04529786 0.3238967 0.9438897 0.01451092 0.3299416 0.9435144 0.003370404 0.3313143 0.9435145 -0.003371655 0.3313142 0.9438897 -0.01451331 0.3299417 0.9450064 -0.04529803 0.3238998 0.9417941 -0.1431489 0.3041912 0.6439955 0.3257449 0.6922138 0.6423469 0.08426403 0.7617678 0.6339963 0.02608686 0.7728959 0.6312882 0.008402168 0.7755029 0.6306904 0.001967072 0.776032 0.63069 -0.001968026 0.7760325 0.6312889 -0.008404076 0.7755023 0.6339977 -0.02608716 0.7728949 0.6423475 -0.08426505 0.7617671 0.08627682 -0.07703381 0.9932886 0.02239602 -0.1407361 0.9897938 0.007033407 -0.157351 0.9875177 0.002276778 -0.1617447 0.9868301 5.33896e-4 -0.1629604 0.9866325 -4.13504e-4 -0.1632202 0.9865897 -0.001711606 -0.1629613 0.986631 -0.004966378 -0.1617465 0.9868199 -0.01418727 -0.1573883 0.9874349 0.08627712 0.07703357 0.9932886 0.09629684 0.02354741 0.9950741 0.09902232 0.008247673 0.9950511 0.09978038 0.00284326 0.9950055 0.09994131 6.87382e-4 0.9949932 0.09994167 -6.87652e-4 0.994993 0.09978091 -0.002843439 0.9950054 0.0990228 -0.008247375 0.9950511 0.09629672 -0.02354794 0.9950741 0.02239626 0.1407358 0.9897939 0.02632397 0.03601735 0.9990044 0.02796518 0.01109814 0.9995474 0.02852314 0.003542304 0.9995869 0.02865338 8.23397e-4 0.9995891 0.02865356 -8.23443e-4 0.9995892 0.02852296 -0.003541886 0.9995869 0.02796477 -0.01109868 0.9995473 0.02632361 -0.03601741 0.9990045 0.007033705 0.1573516 0.9875176 0.008303463 0.04327702 0.9990286 0.009014785 0.01362973 0.9998666 0.009299278 0.004363775 0.9999473 0.009371697 0.001012563 0.9999557 0.00937134 -0.001012563 0.9999557 0.009299576 -0.004363775 0.9999473 0.009013831 -0.01363021 0.9998665 0.008303523 -0.04327654 0.9990287 0.002276778 0.1617447 0.9868301 0.002663969 0.04602444 0.9989368 0.002931118 0.01484161 0.9998856 0.003051578 0.004823982 0.9999837 0.003084182 0.001128613 0.9999946 0.003083825 -0.001128196 0.9999947 0.003051638 -0.004824459 0.9999837 0.002930641 -0.01484161 0.9998856 0.00266391 -0.0460245 0.9989368 5.33476e-4 0.1629612 0.9866324 6.18877e-4 0.04694604 0.9988973 6.85558e-4 0.01531481 0.9998826 7.17508e-4 0.005025565 0.9999871 7.27059e-4 0.0011819 0.9999991 7.26648e-4 -0.0011819 0.9999991 7.1792e-4 -0.005025565 0.9999871 6.85595e-4 -0.01531487 0.9998825 6.18889e-4 -0.04694604 0.9988973 -4.13704e-4 0.1632196 0.9865897 -4.99438e-4 0.04716116 0.9988873 -6.1486e-4 0.01543474 0.9998807 -6.85189e-4 0.005079686 0.9999869 -7.1735e-4 0.001197159 0.9999991 -7.17267e-4 -0.001197159 0.9999991 -6.85224e-4 -0.005079686 0.9999869 -6.14693e-4 -0.01543474 0.9998807 -4.99428e-4 -0.04716068 0.9988873 -0.001711785 0.1629605 0.9866311 -0.002149105 0.04694664 0.9988951 -0.002649545 0.01531547 0.9998793 -0.002929091 0.005025982 0.9999831 -0.0030514 0.001182019 0.9999946 -0.003050982 -0.001182019 0.9999946 -0.002928614 -0.005025982 0.9999831 -0.002649068 -0.01531547 0.9998793 -0.002149224 -0.0469461 0.9988952 -0.004966259 0.1617465 0.9868199 -0.006734013 0.04603058 0.9989174 -0.008275508 0.01484721 0.9998556 -0.009011626 0.004827678 0.9999477 -0.009298741 0.001129209 0.9999562 -0.009299039 -0.001129209 0.9999561 -0.009011805 -0.00482726 0.9999479 -0.008275389 -0.01484721 0.9998556 -0.006734013 -0.04603099 0.9989174 -0.01418685 0.1573881 0.987435 -0.02186369 0.04334926 0.9988207 -0.02628952 0.01368349 0.9995607 -0.0279622 0.004390597 0.9995993 -0.02852278 0.001020312 0.9995926 -0.02852261 -0.001020312 0.9995927 -0.02796208 -0.00439012 0.9995993 -0.0262891 -0.01368385 0.9995608 -0.02186352 -0.0433492 0.9988208 -0.04656088 0.1414679 0.9888473 -0.0859487 0.03710484 0.9956084 -0.09628611 0.01167577 0.9952853 -0.09902262 0.003781259 0.9950781 -0.09978049 8.86563e-4 0.9950091 -0.09978127 -8.85899e-4 0.995009 -0.09902244 -0.003781855 0.995078 -0.09628605 -0.01167559 0.9952852 -0.08594936 -0.03710418 0.9956084 -0.04656153 0.1414682 -0.9888473 -0.08594894 0.03710478 -0.9956085 -0.09628635 0.01167559 -0.9952853 -0.09902268 0.003781259 -0.995078 -0.09978055 8.86444e-4 -0.9950091 -0.0999419 -6.87382e-4 -0.9949931 -0.09978061 -0.002842962 -0.9950054 -0.09902256 -0.008247852 -0.9950511 -0.09629648 -0.02354782 -0.9950742 0.04656136 0.1414675 -0.9888474 0.01418709 0.1573883 -0.9874349 0.004966259 0.1617467 -0.9868199 0.001711785 0.1629611 -0.9866311 4.13705e-4 0.1632207 -0.9865895 -4.13587e-4 0.1632207 -0.9865895 -0.001711606 0.1629611 -0.986631 -0.004966139 0.1617467 -0.9868199 -0.01418685 0.1573883 -0.9874349 0.08594876 0.03710484 -0.9956084 0.02186369 0.04334849 -0.9988209 0.006734371 0.0460307 -0.9989174 0.002149105 0.0469464 -0.9988951 4.9982e-4 0.04716026 -0.9988873 -4.99733e-4 0.0471602 -0.9988873 -0.002149224 0.0469464 -0.9988952 -0.006734251 0.04603099 -0.9989174 -0.02186334 0.0433492 -0.9988208 0.09628605 0.01167589 -0.9952853 0.02628886 0.01368433 -0.9995607 0.008275628 0.01484721 -0.9998556 0.002649068 0.01531547 -0.9998793 6.14501e-4 0.01543492 -0.9998808 -6.14411e-4 0.01543492 -0.9998808 -0.002649068 0.01531523 -0.9998793 -0.008275389 0.01484704 -0.9998556 -0.02628904 0.01368385 -0.9995607 0.09902268 0.003781497 -0.9950781 0.0279622 0.004390418 -0.9995993 0.009011626 0.004827439 -0.9999479 0.002928972 0.005025982 -0.9999831 6.84955e-4 0.005079686 -0.9999869 -6.84945e-4 0.005079686 -0.9999869 -0.002928972 0.005025982 -0.9999831 -0.009011447 0.004827499 -0.9999479 -0.02796214 0.004390418 -0.9995993 0.09978055 8.86792e-4 -0.9950091 0.02852255 0.00102055 -0.9995927 0.00929898 0.001129209 -0.9999562 0.00305128 0.001182019 -0.9999947 7.17699e-4 0.001197159 -0.9999991 -7.17643e-4 0.001197159 -0.9999991 -0.00305128 0.001182436 -0.9999946 -0.009298861 0.001129448 -0.9999561 -0.02852278 0.001020312 -0.9995927 0.0999422 -6.8707e-4 -0.9949931 0.02865344 -8.23843e-4 -0.9995891 0.009371697 -0.001012802 -0.9999557 0.003084063 -0.001128196 -0.9999946 7.2688e-4 -0.0011819 -0.9999991 -7.26648e-4 -0.001182317 -0.9999991 -0.003084301 -0.001128435 -0.9999946 -0.009371757 -0.001012802 -0.9999557 -0.0286538 -8.23361e-4 -0.9995892 0.09978038 -0.002843737 -0.9950055 0.02852278 -0.003542363 -0.9995869 0.009299337 -0.004364013 -0.9999473 0.003051459 -0.004824221 -0.9999837 7.17918e-4 -0.005025565 -0.9999871 -7.1792e-4 -0.005025565 -0.9999871 -0.003051519 -0.004823982 -0.9999837 -0.009299337 -0.004363298 -0.9999473 -0.02852284 -0.003541886 -0.9995869 0.09902226 -0.008247494 -0.995051 0.02796471 -0.01109844 -0.9995473 0.009014785 -0.01362973 -0.9998665 0.002930879 -0.01484161 -0.9998856 6.85601e-4 -0.01531481 -0.9998826 -6.85594e-4 -0.01531481 -0.9998825 -0.002930641 -0.01484161 -0.9998856 -0.009014487 -0.01363015 -0.9998665 -0.02796477 -0.01109886 -0.9995474 0.09629642 -0.02354758 -0.9950742 0.02632385 -0.03601723 -0.9990045 0.008303642 -0.04327678 -0.9990286 0.00266385 -0.04602497 -0.9989368 6.18972e-4 -0.04694581 -0.9988973 -6.19016e-4 -0.04694581 -0.9988973 -0.002663791 -0.04602491 -0.9989367 -0.008303642 -0.04327702 -0.9990287 -0.02632391 -0.03601747 -0.9990044 0.08627694 -0.07703381 -0.9932886 0.02239614 -0.1407363 -0.9897938 0.007033407 -0.157351 -0.9875177 0.002277076 -0.1617442 -0.9868301 5.33647e-4 -0.162961 -0.9866325 -5.33741e-4 -0.1629607 -0.9866325 -0.002276897 -0.1617443 -0.9868301 -0.007033765 -0.157351 -0.9875177 -0.02239638 -0.1407359 -0.9897939 -0.0465613 -0.1414675 -0.9888473 -0.08627766 -0.07703322 0.9932886 0.8726594 -0.2079294 0.4418495 -0.0837509 -0.837017 0.5407294 -0.8726599 0.2079288 0.4418488 -0.08375149 0.8370185 -0.540727 -0.1716191 0.9297962 0.3256163 -0.2003331 0.9741817 0.1040998 -0.2067544 0.9777083 0.03659564 -0.2084012 0.9779621 0.01261913 -0.2087424 0.977966 0.003053009 -0.2084154 0.9780325 -0.003935873 -0.2068592 0.9782268 -0.01678526 -0.2010951 0.9782002 -0.05181807 -0.1780129 0.9703826 -0.1633064 0.1716188 0.9297943 0.3256219 0.04042786 0.8407939 0.5398439 0.01228457 0.8116565 0.5840058 0.003941357 0.8037883 0.5949025 9.21244e-4 0.8011287 0.5984914 -9.20863e-4 0.8011295 0.5984903 -0.00394088 0.8037884 0.5949023 -0.01228445 0.8116587 0.5840029 -0.0404275 0.8407936 0.5398442 0.2003336 0.9741817 0.1040998 0.05518233 0.985501 0.1604458 0.01733177 0.9812528 0.1919445 0.005547761 0.9790194 0.2036916 0.001288533 0.9782131 0.2075992 -0.001287996 0.978213 0.2076004 -0.005547761 0.97902 0.2036891 -0.0173313 0.981253 0.1919435 -0.05518233 0.9855018 0.1604407 0.2067554 0.9777082 0.03659278 0.05927425 0.9969893 0.04998928 0.01911884 0.9979281 0.0614326 0.006214559 0.9977421 0.06687533 0.001453518 0.9976156 0.06900167 -0.001453042 0.9976157 0.06899946 -0.006214559 0.9977419 0.06687694 -0.0191183 0.9979282 0.06143116 -0.05927371 0.9969893 0.04999047 0.2084025 0.9779617 0.01262128 0.06051754 0.9980394 0.01597094 0.01975458 0.9996109 0.01969969 0.006483197 0.9997419 0.0217781 0.001524686 0.9997414 0.0226891 -0.001524686 0.9997416 0.02268707 -0.00648272 0.9997419 0.021779 -0.01975405 0.9996109 0.01969671 -0.06051754 0.9980395 0.01597082 0.2087431 0.9779658 0.003050982 0.06080031 0.998143 0.003714501 0.0199123 0.9997913 0.004571557 0.006554007 0.9999656 0.005095958 0.001544475 0.9999846 0.005338609 -0.001544475 0.9999846 0.00533837 -0.00655353 0.9999656 0.005093574 -0.01991176 0.9997913 0.004569351 -0.06079977 0.9981431 0.003715097 0.2084158 0.9780324 -0.003934442 0.06052374 0.9981563 -0.00460124 0.01975786 0.9997918 -0.005095779 0.006483614 0.9999648 -0.00533843 0.001524865 0.9999843 -0.005405664 -0.001524865 0.9999843 -0.005405783 -0.006483078 0.9999648 -0.00533837 -0.01975679 0.9997919 -0.005095541 -0.06052368 0.9981563 -0.004599273 0.2068589 0.9782268 -0.01678693 0.0593279 0.9980424 -0.01979357 0.01914215 0.9995793 -0.021793 0.006222963 0.9997232 -0.02269035 0.001455247 0.999736 -0.02293235 -0.001455247 0.999736 -0.02293258 -0.00622195 0.9997233 -0.02268868 -0.01914215 0.9995793 -0.02179056 -0.0593273 0.9980424 -0.01979309 0.2010955 0.9782003 -0.05181616 0.05569618 0.9965456 -0.0616042 0.01754564 0.9976061 -0.06689101 0.005616486 0.9976009 -0.06900054 0.001303553 0.9975785 -0.06953722 -0.001303076 0.9975786 -0.0695371 -0.005615949 0.9976009 -0.06900036 -0.01754558 0.997606 -0.0668922 -0.05569618 0.9965454 -0.06160509 0.1780135 0.9703824 -0.1633077 0.04559952 0.9803114 -0.1921206 0.01402425 0.9789331 -0.2036992 0.004472374 0.9782038 -0.2075994 0.001039624 0.9780194 -0.2085112 -0.001039683 0.9780195 -0.2085111 -0.004471838 0.9782035 -0.2076005 -0.01402378 0.9789332 -0.203699 -0.04559957 0.9803115 -0.1921199 0.08375048 0.8370169 -0.5407297 0.0247724 0.8113808 -0.5839929 0.008595764 0.8037574 -0.5948951 0.002955257 0.8015934 -0.5978622 7.14067e-4 0.8015977 -0.5978634 -7.13643e-4 0.8015977 -0.5978635 -0.002955377 0.8015944 -0.5978609 -0.008595347 0.8037573 -0.5948953 -0.02477186 0.8113802 -0.5839938 -0.643999 0.3257465 -0.6922099 -0.8484459 0.4734966 -0.2365179 -0.8649155 0.4961878 -0.07562404 -0.8654878 0.5003315 -0.02448159 -0.8653782 0.5010867 -0.005738615 -0.8657382 0.5004776 0.004445731 -0.8672629 0.4975105 0.01839482 -0.8721388 0.486338 0.05337846 -0.8853162 0.4396222 0.1514846 -0.6439977 -0.3257465 -0.6922112 -0.6423484 -0.08426487 -0.7617664 -0.6339983 -0.02608764 -0.7728943 -0.631287 -0.008402884 -0.7755039 -0.6306903 -0.001967072 -0.7760322 -0.6306903 0.001968383 -0.7760323 -0.6312887 0.008402585 -0.7755025 -0.6339994 0.02608704 -0.7728936 -0.6423481 0.08426475 -0.7617667 -0.8484461 -0.4734969 -0.2365163 -0.9417948 -0.1431475 -0.3041898 -0.9450072 -0.04529869 -0.3238975 -0.9438908 -0.01451265 -0.3299388 -0.9435141 -0.003371238 -0.3313153 -0.9435141 0.003372132 -0.3313153 -0.9438909 0.01451289 -0.3299387 -0.9450066 0.04529786 -0.3238992 -0.9417948 0.1431473 -0.3041898 -0.8649144 -0.4961893 -0.07562559 -0.9822871 -0.1584334 -0.1000554 -0.992632 -0.05159264 -0.1096358 -0.9934331 -0.01678663 -0.1131761 -0.9934661 -0.003926455 -0.1140599 -0.9934661 0.003928542 -0.1140599 -0.9934332 0.01678627 -0.1131761 -0.992632 0.05159324 -0.1096357 -0.9822864 0.1584367 -0.1000571 -0.8654875 -0.5003321 -0.0244801 -0.9862266 -0.1622301 -0.03222572 -0.9979246 -0.05350136 -0.03583562 -0.9991476 -0.01757568 -0.03735154 -0.9992784 -0.004134356 -0.03775513 -0.9992785 0.004135847 -0.03775519 -0.9991477 0.01757764 -0.03735154 -0.9979249 0.05349928 -0.0358321 -0.986227 0.1622285 -0.03222179 -0.8653783 -0.5010863 -0.0057379 -0.9865924 -0.1630317 -0.007490515 -0.9985156 -0.05394732 -0.007520496 -0.9998068 -0.01777654 -0.008389234 -0.9999526 -0.00418812 -0.008792698 -0.9999526 0.004189729 -0.008792698 -0.9998068 0.01777654 -0.00839287 -0.9985154 0.05394899 -0.007523953 -0.9865927 0.1630299 -0.007493734 -0.8657388 -0.5004764 0.004444956 -0.9867218 -0.1623076 0.006045997 -0.9985311 -0.05352985 0.008386373 -0.9998068 -0.01758581 0.0087924 -0.9999519 -0.004137635 0.008901 -0.9999519 0.004139423 0.008901 -0.9998068 0.01758557 0.0087924 -0.9985311 0.05353027 0.008386433 -0.9867217 0.1623077 0.006046414 -0.8672623 -0.4975117 0.01839506 -0.9869131 -0.1591446 0.02599352 -0.9981293 -0.051853 0.03239065 -0.9992148 -0.01687008 0.03585106 -0.9992945 -0.003944873 0.03735011 -0.9992947 0.003945291 0.03734648 -0.9992147 0.01687306 0.03585106 -0.9981293 0.0518552 0.03239059 -0.9869127 0.1591461 0.02599745 -0.8721389 -0.486338 0.05337619 -0.9854353 -0.1493751 0.08126771 -0.9937829 -0.04740726 0.1007384 -0.993847 -0.01517933 0.1097168 -0.9935681 -0.003519058 0.1131821 -0.9935677 0.003520786 0.1131857 -0.993847 0.01517868 0.1097167 -0.9937826 0.04740732 0.1007403 -0.9854354 0.1493752 0.08126741 -0.8853165 -0.439621 0.151487 -0.9589793 -0.1207029 0.2564949 -0.9511899 -0.03691464 0.3063907 -0.9459363 -0.01172667 0.3241405 -0.9439889 -0.002721309 0.3299661 -0.9439889 0.002723038 0.3299663 -0.9459366 0.01172703 0.3241399 -0.9511899 0.03691494 0.3063905 -0.9589802 0.1207031 0.2564914 -0.8726608 -0.2079296 0.4418468 -0.6868119 -0.05530321 0.7247283 -0.6448254 -0.01857149 0.7641043 -0.6342206 -0.006330668 0.7731263 -0.6313101 -0.0015257 0.775529 -0.6313106 0.001526117 0.7755286 -0.6342205 0.006331682 0.7731264 -0.6448256 0.01857125 0.7641041 -0.6868106 0.05530321 0.7247294 -0.1716195 -0.9297955 -0.3256182 -0.2003338 -0.9741814 -0.1041008 -0.2067547 -0.9777083 -0.03659403 -0.2084014 -0.9779621 -0.01261866 -0.2087423 -0.977966 -0.003050446 -0.208416 -0.9780324 0.003935873 -0.2068591 -0.9782268 0.01678657 -0.2010955 -0.9782002 0.05181813 -0.1780144 -0.9703826 0.1633045 0.17162 -0.9297956 -0.3256174 0.04042768 -0.840794 -0.5398436 0.01228445 -0.811658 -0.5840037 0.003941059 -0.8037875 -0.5949034 9.21046e-4 -0.8011301 -0.5984898 -9.21443e-4 -0.80113 -0.5984897 -0.003941357 -0.8037893 -0.5949012 -0.01228421 -0.8116582 -0.5840035 -0.04042774 -0.8407946 -0.5398426 0.2003334 -0.9741815 -0.1041014 0.05518203 -0.9855015 -0.1604424 0.0173313 -0.9812526 -0.1919454 0.005547463 -0.9790201 -0.2036885 0.001288473 -0.978213 -0.2076001 -0.001288473 -0.9782127 -0.2076016 -0.005548298 -0.9790202 -0.2036877 -0.01733124 -0.9812529 -0.1919442 -0.05518203 -0.9855015 -0.1604426 0.2067553 -0.9777081 -0.03659546 0.05927312 -0.9969894 -0.04999041 0.0191186 -0.9979283 -0.0614295 0.006214499 -0.9977419 -0.06687635 0.001453042 -0.9976155 -0.06900167 -0.001453816 -0.9976158 -0.06899768 -0.006214499 -0.997742 -0.06687635 -0.01911884 -0.9979284 -0.06142932 -0.05927371 -0.9969894 -0.04998695 0.2084014 -0.977962 -0.01261991 0.06051743 -0.9980395 -0.01596981 0.01975435 -0.9996108 -0.01969867 0.006482422 -0.9997418 -0.02178013 0.001524448 -0.9997415 -0.02268815 -0.001525223 -0.9997415 -0.02268797 -0.006482958 -0.9997418 -0.0217787 -0.01975458 -0.9996109 -0.01969665 -0.06051725 -0.9980395 -0.01597088 0.2087416 -0.9779661 -0.003050982 0.06080037 -0.9981431 -0.003714501 0.019912 -0.9997913 -0.004570543 0.00655353 -0.9999656 -0.005094945 0.001543998 -0.9999846 -0.005337655 -0.001544475 -0.9999846 -0.005339026 -0.006554007 -0.9999656 -0.00509572 -0.019912 -0.9997913 -0.00457251 -0.06080067 -0.9981431 -0.00371319 0.2084159 -0.9780324 0.00393337 0.06052315 -0.9981562 0.004600465 0.01975703 -0.9997918 0.005098462 0.006483852 -0.9999648 0.005335986 0.001524329 -0.9999843 0.005404949 -0.001525163 -0.9999843 0.005404829 -0.00648415 -0.9999648 0.005337417 -0.01975703 -0.9997919 0.00509864 -0.06052404 -0.9981561 0.004600346 0.2068598 -0.9782266 0.01678711 0.05932676 -0.9980425 0.01979345 0.01914215 -0.9995793 0.02179133 0.006222188 -0.9997232 0.02269148 0.001455008 -0.999736 0.02293288 -0.001455247 -0.999736 0.0229336 -0.006222963 -0.9997232 0.02268868 -0.01914215 -0.9995793 0.02179157 -0.05932766 -0.9980423 0.01979422 0.2010946 -0.9782003 0.0518186 0.05569535 -0.9965454 0.06160694 0.01754534 -0.9976057 0.06689566 0.005616247 -0.9976007 0.06900227 0.001303076 -0.9975784 0.06953924 -0.001303017 -0.9975785 0.06953912 -0.005616486 -0.9976007 0.06900238 -0.01754611 -0.997606 0.0668922 -0.05569618 -0.9965454 0.06160736 0.1780139 -0.9703828 0.1633051 0.04559868 -0.9803117 0.1921191 0.01402342 -0.978933 0.2036999 0.004472136 -0.9782037 0.2075997 0.001039147 -0.9780196 0.2085103 -0.001039385 -0.9780195 0.2085111 -0.004472613 -0.9782035 0.2076003 -0.01402366 -0.978933 0.2037001 -0.04559952 -0.9803118 0.1921185 0.0837506 -0.8370171 0.5407295 0.0247724 -0.8113822 0.5839908 0.008594751 -0.8037577 0.5948948 0.002955615 -0.8015942 0.5978613 7.13788e-4 -0.8015982 0.5978628 -7.14243e-4 -0.8015975 0.5978636 -0.002955317 -0.8015937 0.597862 -0.008595705 -0.8037586 0.5948935 -0.02477264 -0.8113805 0.5839934 0.6439979 -0.3257484 -0.69221 0.848446 -0.4734975 -0.2365156 0.8649151 -0.4961887 -0.07562303 0.8654881 -0.500331 -0.02447968 0.8653792 -0.5010849 -0.005738615 0.8657399 -0.5004744 0.004445731 0.8672625 -0.4975112 0.01839989 0.8721391 -0.4863377 0.05337601 0.8853154 -0.4396225 0.1514891 0.6439976 0.3257467 -0.6922111 0.6423453 0.08426618 -0.7617689 0.6339968 0.02608686 -0.7728956 0.6312871 0.008402824 -0.7755038 0.6306903 0.001966357 -0.7760322 0.6306905 -0.001966595 -0.7760321 0.6312871 -0.00840336 -0.7755037 0.633998 -0.02608722 -0.7728947 0.6423474 -0.08426445 -0.7617673 0.848445 0.4734982 -0.236518 0.9417956 0.1431466 -0.304188 0.9450074 0.04529786 -0.3238971 0.9438911 0.01451098 -0.3299382 0.9435144 0.003370404 -0.3313147 0.9435143 -0.00337094 -0.3313146 0.9438911 -0.01451408 -0.329938 0.9450074 -0.04529815 -0.3238968 0.9417954 -0.1431481 -0.304188 0.8649139 0.4961903 -0.07562547 0.9822868 0.1584351 -0.1000559 0.992632 0.05159264 -0.1096357 0.9934337 0.01678496 -0.1131724 0.9934666 0.003926455 -0.1140562 0.9934666 -0.00392723 -0.1140562 0.9934336 -0.01678609 -0.1131725 0.992632 -0.0515933 -0.1096358 0.9822865 -0.1584365 -0.1000565 0.8654878 0.5003316 -0.02447974 0.9862263 0.1622318 -0.03222554 0.9979251 0.05349802 -0.03582823 0.9991477 0.01757568 -0.03735148 0.9992785 0.004132747 -0.03775513 0.9992784 -0.004135012 -0.03775513 0.9991478 -0.01757645 -0.03734785 0.997925 -0.05349916 -0.03582829 0.9862271 -0.1622287 -0.03221839 0.8653783 0.5010865 -0.005738317 0.9865928 0.1630298 -0.007486641 0.9985156 0.05394732 -0.007516801 0.9998068 0.01777493 -0.00839281 0.9999526 0.00418812 -0.008789062 0.9999526 -0.00418812 -0.008792698 0.9998068 -0.01777654 -0.00839287 0.9985154 -0.05394899 -0.007524073 0.9865925 -0.1630317 -0.007494211 0.86574 0.5004745 0.004442095 0.9867218 0.1623072 0.006048738 0.9985311 0.05352824 0.008390069 0.9998067 0.01758748 0.008788764 0.9999519 0.004136025 0.008901 0.9999519 -0.004137694 0.008901 0.9998068 -0.01758646 0.00879234 0.9985311 -0.05352944 0.008389949 0.986722 -0.1623062 0.006047964 0.8672628 0.4975108 0.01839745 0.9869128 0.159146 0.02599549 0.9981294 0.05185198 0.03239071 0.9992148 0.01687026 0.03585112 0.9992793 0.003944993 0.03775519 0.9992944 -0.003946959 0.03735375 0.9992148 -0.01687139 0.03585106 0.9981291 -0.0518552 0.03239423 0.9869127 -0.1591463 0.02599889 0.8721405 0.4863356 0.05337375 0.9854356 0.1493737 0.08126729 0.9937828 0.04740697 0.1007393 0.9938474 0.01517826 0.109713 0.9935681 0.003519296 0.113182 0.993568 -0.003520786 0.1131821 0.9938471 -0.01518034 0.1097167 0.9937831 -0.04740738 0.1007357 0.9854349 -0.1493778 0.08126759 0.8853174 0.43962 0.1514846 0.958981 0.1207006 0.2564893 0.9511898 0.03691548 0.3063907 0.9459363 0.01172381 0.3241407 0.9439879 0.002721011 0.3299689 0.9439879 -0.002722203 0.3299692 0.945935 -0.01172703 0.3241445 0.9511888 -0.03691577 0.3063941 0.9589797 -0.1207031 0.2564932 0.8726605 0.2079266 0.4418488 0.6868095 0.05530261 0.7247305 0.6448245 0.01857066 0.7641052 0.6342187 0.00633049 0.7731279 0.6313116 0.001524507 0.7755278 0.6313112 -0.001526117 0.7755282 0.6342198 -0.006331682 0.773127 0.6448252 -0.01857125 0.7641044 0.6868093 -0.05530393 0.7247306 0.04656153 -0.141468 0.9888473 0.01418733 -0.1573882 0.987435 0.004965901 -0.161747 0.9868198 0.001711905 -0.1629606 0.9866311 4.13581e-4 -0.1632201 0.9865897 -5.33896e-4 -0.1629611 0.9866324 -0.002277076 -0.1617441 0.9868301 -0.007033407 -0.1573511 0.9875178 -0.02239602 -0.1407366 0.9897938 0.04656136 0.141468 0.9888473 0.08594864 0.03710466 0.9956084 0.09628611 0.01167523 0.9952852 0.0990225 0.003781616 0.9950781 0.09978103 8.86464e-4 0.9950091 0.09978049 -8.86521e-4 0.9950091 0.09902262 -0.003781497 0.995078 0.09628611 -0.01167571 0.9952853 0.08594876 -0.03710478 0.9956084 0.01418685 0.1573891 0.9874348 0.02186375 0.04334926 0.9988207 0.02628898 0.01368343 0.9995608 0.0279622 0.004390597 0.9995994 0.02852332 0.001020252 0.9995927 0.0285229 -0.001020371 0.9995926 0.02796185 -0.004390597 0.9995994 0.02628928 -0.01368391 0.9995607 0.02186387 -0.04334878 0.9988209 0.004965901 0.1617468 0.9868198 0.006734013 0.04603052 0.9989174 0.008275032 0.01484721 0.9998556 0.009011626 0.00482726 0.9999478 0.009298741 0.001129627 0.9999562 0.009299337 -0.001129209 0.9999561 0.009011507 -0.004827678 0.9999478 0.008275687 -0.01484721 0.9998556 0.006734073 -0.04603052 0.9989174 0.001712083 0.1629612 0.986631 0.002149105 0.04694658 0.9988951 0.002649068 0.01531547 0.9998793 0.002929091 0.005025982 0.9999831 0.0030514 0.001182019 0.9999947 0.00305128 -0.001182019 0.9999946 0.002928972 -0.005025982 0.9999831 0.002649247 -0.01531547 0.9998793 0.002149045 -0.04694664 0.9988951 4.14013e-4 0.1632196 0.9865897 4.99438e-4 0.04716116 0.9988872 6.1486e-4 0.01543474 0.9998807 6.85188e-4 0.005079686 0.9999869 7.1735e-4 0.001197159 0.9999991 7.17571e-4 -0.001197159 0.9999991 6.85004e-4 -0.005079686 0.9999869 6.14572e-4 -0.01543474 0.9998808 4.99784e-4 -0.04716068 0.9988872 -5.33784e-4 0.1629602 0.9866325 -6.1888e-4 0.0469461 0.9988973 -6.85305e-4 0.01531481 0.9998826 -7.17723e-4 0.005025565 0.9999871 -7.26754e-4 0.0011819 0.9999991 -7.27112e-4 -0.0011819 0.9999991 -7.17452e-4 -0.005025565 0.9999871 -6.85595e-4 -0.01531481 0.9998826 -6.19143e-4 -0.04694557 0.9988973 -0.002276837 0.1617439 0.9868302 -0.002664029 0.0460245 0.9989368 -0.00293076 0.01484161 0.9998856 -0.003051698 0.004824459 0.9999837 -0.003083884 0.001128196 0.9999946 -0.003084301 -0.001128196 0.9999946 -0.003051638 -0.004823982 0.9999837 -0.002930641 -0.01484161 0.9998856 -0.00266391 -0.04602491 0.9989368 -0.007033407 0.1573507 0.9875178 -0.008303463 0.04327708 0.9990286 -0.009014427 0.01362973 0.9998665 -0.00929898 0.004363775 0.9999473 -0.009371817 0.001012563 0.9999557 -0.009371757 -0.001012563 0.9999557 -0.009299099 -0.004363298 0.9999473 -0.009014844 -0.01363015 0.9998665 -0.008303523 -0.04327702 0.9990286 -0.02239626 0.1407358 0.9897939 -0.02632379 0.03601741 0.9990044 -0.02796465 0.01109862 0.9995473 -0.02852332 0.003541946 0.9995869 -0.02865362 8.2343e-4 0.9995892 -0.0286535 -8.22932e-4 0.9995892 -0.02852243 -0.003542363 0.9995869 -0.02796477 -0.01109868 0.9995474 -0.02632385 -0.03601694 0.9990045 -0.08627706 0.07703304 0.9932886 -0.09629654 0.02354794 0.9950742 -0.09902232 0.008247792 0.995051 -0.0997802 0.00284332 0.9950055 -0.09994155 6.87226e-4 0.994993 -0.09994107 -6.87182e-4 0.9949931 -0.09978079 -0.002843201 0.9950054 -0.09902215 -0.008247852 0.9950511 -0.09629619 -0.02354782 0.9950742 -0.08627694 0.07703393 -0.9932886 -0.09629684 0.0235477 -0.9950742 -0.09902256 0.008247852 -0.9950511 -0.09978049 0.002843379 -0.9950054 -0.09994173 6.87179e-4 -0.994993 -0.09978067 -8.86289e-4 -0.9950091 -0.09902274 -0.003781139 -0.9950781 -0.09628605 -0.01167589 -0.9952852 -0.08594888 -0.0371049 -0.9956084 0.08627688 0.07703357 -0.9932886 0.0223965 0.1407359 -0.9897938 0.007033526 0.1573511 -0.9875177 0.002276957 0.161744 -0.9868301 5.33913e-4 0.1629609 -0.9866324 -5.33896e-4 0.1629611 -0.9866324 -0.002277076 0.1617442 -0.9868301 -0.007033467 0.1573512 -0.9875177 -0.0223962 0.1407364 -0.9897938 0.09629631 0.02354776 -0.9950742 0.02632361 0.03601747 -0.9990045 0.008303821 0.04327625 -0.9990287 0.002663731 0.04602468 -0.9989368 6.18959e-4 0.04694569 -0.9988973 -6.18762e-4 0.04694586 -0.9988973 -0.002663791 0.04602491 -0.9989368 -0.008303642 0.04327696 -0.9990286 -0.02632391 0.03601741 -0.9990044 0.09902256 0.008247494 -0.995051 0.02796483 0.01109868 -0.9995473 0.009014487 0.01363062 -0.9998666 0.00293076 0.01484161 -0.9998856 6.85598e-4 0.01531487 -0.9998825 -6.85595e-4 0.01531463 -0.9998825 -0.00293076 0.01484137 -0.9998856 -0.009014308 0.01363015 -0.9998665 -0.02796471 0.01109844 -0.9995474 0.09978049 0.002843737 -0.9950055 0.02852284 0.003542125 -0.9995869 0.009299218 0.004363536 -0.9999473 0.003051459 0.004824221 -0.9999837 7.17625e-4 0.005025565 -0.9999871 -7.17568e-4 0.005025565 -0.9999871 -0.003051519 0.004824221 -0.9999837 -0.009299099 0.004363536 -0.9999473 -0.02852296 0.003541886 -0.9995869 0.09994226 6.87071e-4 -0.994993 0.02865338 8.23843e-4 -0.9995892 0.009371638 0.001012802 -0.9999557 0.003084182 0.001128196 -0.9999946 7.26764e-4 0.0011819 -0.9999991 -7.26531e-4 0.001182317 -0.9999991 -0.003084301 0.001128435 -0.9999947 -0.009371638 0.001012563 -0.9999557 -0.02865368 8.23425e-4 -0.9995892 0.09978061 -8.86793e-4 -0.9950091 0.02852255 -0.00102055 -0.9995926 0.00929898 -0.001129209 -0.9999562 0.00305128 -0.001182019 -0.9999947 7.17814e-4 -0.001196742 -0.9999991 -7.17817e-4 -0.001196742 -0.9999991 -0.003051161 -0.001182436 -0.9999946 -0.009299039 -0.001129448 -0.9999561 -0.02852255 -0.001020491 -0.9995927 0.09902256 -0.003781795 -0.995078 0.02796208 -0.004390835 -0.9995993 0.009011745 -0.004827499 -0.9999477 0.002928972 -0.005025982 -0.9999831 6.85072e-4 -0.005080163 -0.9999869 -6.85067e-4 -0.005080163 -0.9999869 -0.002928853 -0.005025982 -0.9999831 -0.009011447 -0.00482726 -0.9999479 -0.02796214 -0.00439012 -0.9995993 0.09628617 -0.01167565 -0.9952852 0.0262891 -0.01368343 -0.9995608 0.00827527 -0.01484721 -0.9998556 0.002649068 -0.01531547 -0.9998793 6.14501e-4 -0.01543492 -0.9998807 -6.14542e-4 -0.01543492 -0.9998808 -0.002648949 -0.01531547 -0.9998793 -0.008275389 -0.01484721 -0.9998556 -0.02628934 -0.01368391 -0.9995607 0.0859487 -0.03710454 -0.9956084 0.02186346 -0.04334896 -0.9988209 0.006734132 -0.04603105 -0.9989174 0.002149105 -0.0469464 -0.9988952 4.99565e-4 -0.04716068 -0.9988872 -4.99515e-4 -0.04716068 -0.9988873 -0.002148985 -0.0469464 -0.9988952 -0.006734311 -0.04603099 -0.9989174 -0.02186369 -0.0433492 -0.9988208 0.0465613 -0.1414681 -0.9888473 0.01418703 -0.1573882 -0.9874349 0.004965901 -0.1617467 -0.9868199 0.001711905 -0.1629611 -0.986631 4.13858e-4 -0.1632198 -0.9865897 -4.1369e-4 -0.1632198 -0.9865897 -0.001711845 -0.1629609 -0.9866311 -0.00496596 -0.1617468 -0.9868198 -0.01418703 -0.1573883 -0.9874349</float_array>
          <technique_common>
            <accessor source="#Cube-mesh-normals-array" count="1200" stride="3">
              <param name="X" type="float"/>
              <param name="Y" type="float"/>
              <param name="Z" type="float"/>
            </accessor>
          </technique_common>
        </source>
        <vertices id="Cube-mesh-vertices">
          <input semantic="POSITION" source="#Cube-mesh-positions"/>
        </vertices>
        <triangles material="Material-material" count="1200">
          <input semantic="VERTEX" source="#Cube-mesh-vertices" offset="0"/>
          <input semantic="NORMAL" source="#Cube-mesh-normals" offset="1"/>
          <p>601 0 2 0 53 0 520 1 6 1 106 1 88 2 52 2 439 2 358 3 6 3 70 3 115 4 79 4 277 4 196 5 3 5 71 5 124 6 7 6 97 6 133 7 79 7 124 7 142 8 78 8 133 8 151 9 77 9 142 9 160 10 76 10 151 10 160 11 74 11 75 11 169 12 73 12 74 12 178 13 72 13 73 13 187 14 71 14 72 14 4 15 116 15 89 15 89 16 117 16 90 16 90 17 118 17 91 17 91 18 119 18 92 18 119 19 93 19 92 19 93 20 121 20 94 20 121 21 95 21 94 21 122 22 96 22 95 22 123 23 97 23 96 23 34 24 125 24 116 24 116 25 126 25 117 25 117 26 127 26 118 26 118 27 128 27 119 27 119 28 129 28 120 28 129 29 121 29 120 29 130 30 122 30 121 30 131 31 123 31 122 31 132 32 124 32 123 32 33 33 134 33 125 33 125 34 135 34 126 34 126 35 136 35 127 35 127 36 137 36 128 36 128 37 138 37 129 37 138 38 130 38 129 38 139 39 131 39 130 39 140 40 132 40 131 40 141 41 133 41 132 41 32 42 143 42 134 42 134 43 144 43 135 43 135 44 145 44 136 44 136 45 146 45 137 45 137 46 147 46 138 46 147 47 139 47 138 47 148 48 140 48 139 48 149 49 141 49 140 49 150 50 142 50 141 50 31 51 152 51 143 51 143 52 153 52 144 52 144 53 154 53 145 53 145 54 155 54 146 54 146 55 156 55 147 55 156 56 148 56 147 56 157 57 149 57 148 57 158 58 150 58 149 58 159 59 151 59 150 59 29 60 152 60 30 60 161 61 153 61 152 61 162 62 154 62 153 62 163 63 155 63 154 63 164 64 156 64 155 64 156 65 166 65 157 65 157 66 167 66 158 66 158 67 168 67 159 67 159 68 169 68 160 68 28 69 161 69 29 69 170 70 162 70 161 70 171 71 163 71 162 71 172 72 164 72 163 72 173 73 165 73 164 73 165 74 175 74 166 74 166 75 176 75 167 75 167 76 177 76 168 76 168 77 178 77 169 77 27 78 170 78 28 78 179 79 171 79 170 79 180 80 172 80 171 80 181 81 173 81 172 81 182 82 174 82 173 82 174 83 184 83 175 83 175 84 185 84 176 84 176 85 186 85 177 85 177 86 187 86 178 86 26 87 179 87 27 87 188 88 180 88 179 88 189 89 181 89 180 89 190 90 182 90 181 90 191 91 183 91 182 91 183 92 193 92 184 92 184 93 194 93 185 93 185 94 195 94 186 94 186 95 196 95 187 95 0 96 188 96 26 96 17 97 189 97 188 97 18 98 190 98 189 98 19 99 191 99 190 99 191 100 21 100 192 100 21 101 193 101 192 101 193 102 23 102 194 102 194 103 24 103 195 103 195 104 25 104 196 104 61 105 71 105 3 105 205 106 72 106 71 106 214 107 73 107 72 107 223 108 74 108 73 108 232 109 75 109 74 109 250 110 75 110 241 110 259 111 76 111 250 111 268 112 77 112 259 112 277 113 78 113 268 113 62 114 53 114 2 114 197 115 54 115 53 115 198 116 55 116 54 116 199 117 56 117 55 117 200 118 57 118 56 118 57 119 202 119 58 119 58 120 203 120 59 120 59 121 204 121 60 121 60 122 205 122 61 122 63 123 197 123 62 123 206 124 198 124 197 124 207 125 199 125 198 125 208 126 200 126 199 126 209 127 201 127 200 127 201 128 211 128 202 128 202 129 212 129 203 129 203 130 213 130 204 130 204 131 214 131 205 131 64 132 206 132 63 132 215 133 207 133 206 133 216 134 208 134 207 134 217 135 209 135 208 135 218 136 210 136 209 136 210 137 220 137 211 137 211 138 221 138 212 138 212 139 222 139 213 139 213 140 223 140 214 140 65 141 215 141 64 141 224 142 216 142 215 142 225 143 217 143 216 143 226 144 218 144 217 144 227 145 219 145 218 145 219 146 229 146 220 146 220 147 230 147 221 147 221 148 231 148 222 148 222 149 232 149 223 149 66 150 224 150 65 150 233 151 225 151 224 151 225 152 235 152 226 152 226 153 236 153 227 153 227 154 237 154 228 154 237 155 229 155 228 155 238 156 230 156 229 156 239 157 231 157 230 157 231 158 241 158 232 158 66 159 242 159 233 159 233 160 243 160 234 160 243 161 235 161 234 161 244 162 236 162 235 162 245 163 237 163 236 163 237 164 247 164 238 164 238 165 248 165 239 165 239 166 249 166 240 166 249 167 241 167 240 167 67 168 251 168 242 168 242 169 252 169 243 169 243 170 253 170 244 170 244 171 254 171 245 171 245 172 255 172 246 172 255 173 247 173 246 173 256 174 248 174 247 174 257 175 249 175 248 175 258 176 250 176 249 176 68 177 260 177 251 177 251 178 261 178 252 178 252 179 262 179 253 179 253 180 263 180 254 180 254 181 264 181 255 181 264 182 256 182 255 182 265 183 257 183 256 183 266 184 258 184 257 184 267 185 259 185 258 185 69 186 269 186 260 186 260 187 270 187 261 187 261 188 271 188 262 188 262 189 272 189 263 189 263 190 273 190 264 190 273 191 265 191 264 191 274 192 266 192 265 192 275 193 267 193 266 193 276 194 268 194 267 194 70 195 107 195 269 195 269 196 108 196 270 196 270 197 109 197 271 197 271 198 110 198 272 198 272 199 111 199 273 199 111 200 274 200 273 200 112 201 275 201 274 201 113 202 276 202 275 202 114 203 277 203 276 203 286 204 2 204 43 204 295 205 62 205 286 205 304 206 63 206 295 206 313 207 64 207 304 207 322 208 65 208 313 208 322 209 67 209 66 209 331 210 68 210 67 210 340 211 69 211 68 211 349 212 70 212 69 212 1 213 278 213 35 213 35 214 279 214 36 214 36 215 280 215 37 215 37 216 281 216 38 216 281 217 39 217 38 217 39 218 283 218 40 218 283 219 41 219 40 219 284 220 42 220 41 220 285 221 43 221 42 221 44 222 287 222 278 222 278 223 288 223 279 223 279 224 289 224 280 224 280 225 290 225 281 225 281 226 291 226 282 226 291 227 283 227 282 227 292 228 284 228 283 228 293 229 285 229 284 229 294 230 286 230 285 230 45 231 296 231 287 231 287 232 297 232 288 232 288 233 298 233 289 233 289 234 299 234 290 234 290 235 300 235 291 235 300 236 292 236 291 236 301 237 293 237 292 237 302 238 294 238 293 238 303 239 295 239 294 239 46 240 305 240 296 240 296 241 306 241 297 241 297 242 307 242 298 242 298 243 308 243 299 243 299 244 309 244 300 244 309 245 301 245 300 245 310 246 302 246 301 246 311 247 303 247 302 247 312 248 304 248 303 248 47 249 314 249 305 249 305 250 315 250 306 250 306 251 316 251 307 251 307 252 317 252 308 252 308 253 318 253 309 253 318 254 310 254 309 254 319 255 311 255 310 255 320 256 312 256 311 256 321 257 313 257 312 257 49 258 314 258 48 258 323 259 315 259 314 259 324 260 316 260 315 260 325 261 317 261 316 261 326 262 318 262 317 262 318 263 328 263 319 263 319 264 329 264 320 264 320 265 330 265 321 265 321 266 331 266 322 266 50 267 323 267 49 267 332 268 324 268 323 268 333 269 325 269 324 269 334 270 326 270 325 270 335 271 327 271 326 271 327 272 337 272 328 272 328 273 338 273 329 273 329 274 339 274 330 274 330 275 340 275 331 275 51 276 332 276 50 276 341 277 333 277 332 277 342 278 334 278 333 278 343 279 335 279 334 279 344 280 336 280 335 280 336 281 346 281 337 281 337 282 347 282 338 282 338 283 348 283 339 283 339 284 349 284 340 284 52 285 341 285 51 285 350 286 342 286 341 286 351 287 343 287 342 287 352 288 344 288 343 288 353 289 345 289 344 289 345 290 355 290 346 290 346 291 356 291 347 291 347 292 357 292 348 292 348 293 358 293 349 293 5 294 350 294 52 294 98 295 351 295 350 295 99 296 352 296 351 296 100 297 353 297 352 297 353 298 102 298 354 298 102 299 355 299 354 299 355 300 104 300 356 300 356 301 105 301 357 301 357 302 106 302 358 302 16 303 44 303 1 303 367 304 45 304 44 304 376 305 46 305 45 305 385 306 47 306 46 306 394 307 48 307 47 307 412 308 48 308 403 308 421 309 49 309 412 309 430 310 50 310 421 310 439 311 51 311 430 311 26 312 8 312 0 312 359 313 9 313 8 313 360 314 10 314 9 314 361 315 11 315 10 315 362 316 12 316 11 316 12 317 364 317 13 317 13 318 365 318 14 318 14 319 366 319 15 319 15 320 367 320 16 320 27 321 359 321 26 321 368 322 360 322 359 322 369 323 361 323 360 323 370 324 362 324 361 324 371 325 363 325 362 325 363 326 373 326 364 326 364 327 374 327 365 327 365 328 375 328 366 328 366 329 376 329 367 329 28 330 368 330 27 330 377 331 369 331 368 331 378 332 370 332 369 332 379 333 371 333 370 333 380 334 372 334 371 334 372 335 382 335 373 335 373 336 383 336 374 336 374 337 384 337 375 337 375 338 385 338 376 338 29 339 377 339 28 339 386 340 378 340 377 340 387 341 379 341 378 341 388 342 380 342 379 342 389 343 381 343 380 343 381 344 391 344 382 344 382 345 392 345 383 345 383 346 393 346 384 346 384 347 394 347 385 347 30 348 386 348 29 348 395 349 387 349 386 349 387 350 397 350 388 350 388 351 398 351 389 351 389 352 399 352 390 352 399 353 391 353 390 353 400 354 392 354 391 354 401 355 393 355 392 355 393 356 403 356 394 356 30 357 404 357 395 357 395 358 405 358 396 358 405 359 397 359 396 359 406 360 398 360 397 360 407 361 399 361 398 361 399 362 409 362 400 362 400 363 410 363 401 363 401 364 411 364 402 364 411 365 403 365 402 365 31 366 413 366 404 366 404 367 414 367 405 367 405 368 415 368 406 368 406 369 416 369 407 369 416 370 408 370 407 370 417 371 409 371 408 371 418 372 410 372 409 372 419 373 411 373 410 373 420 374 412 374 411 374 32 375 422 375 413 375 413 376 423 376 414 376 414 377 424 377 415 377 415 378 425 378 416 378 416 379 426 379 417 379 426 380 418 380 417 380 427 381 419 381 418 381 428 382 420 382 419 382 429 383 421 383 420 383 33 384 431 384 422 384 422 385 432 385 423 385 423 386 433 386 424 386 424 387 434 387 425 387 425 388 435 388 426 388 435 389 427 389 426 389 436 390 428 390 427 390 437 391 429 391 428 391 438 392 430 392 429 392 34 393 80 393 431 393 431 394 81 394 432 394 432 395 82 395 433 395 433 396 83 396 434 396 434 397 84 397 435 397 84 398 436 398 435 398 85 399 437 399 436 399 86 400 438 400 437 400 87 401 439 401 438 401 448 402 5 402 88 402 457 403 98 403 448 403 466 404 99 404 457 404 475 405 100 405 466 405 484 406 101 406 475 406 484 407 103 407 102 407 493 408 104 408 103 408 502 409 105 409 104 409 511 410 106 410 105 410 4 411 440 411 80 411 80 412 441 412 81 412 81 413 442 413 82 413 82 414 443 414 83 414 83 415 444 415 84 415 444 416 85 416 84 416 445 417 86 417 85 417 446 418 87 418 86 418 447 419 88 419 87 419 89 420 449 420 440 420 440 421 450 421 441 421 441 422 451 422 442 422 442 423 452 423 443 423 443 424 453 424 444 424 453 425 445 425 444 425 454 426 446 426 445 426 455 427 447 427 446 427 456 428 448 428 447 428 90 429 458 429 449 429 449 430 459 430 450 430 450 431 460 431 451 431 451 432 461 432 452 432 452 433 462 433 453 433 462 434 454 434 453 434 463 435 455 435 454 435 464 436 456 436 455 436 465 437 457 437 456 437 91 438 467 438 458 438 458 439 468 439 459 439 459 440 469 440 460 440 460 441 470 441 461 441 461 442 471 442 462 442 471 443 463 443 462 443 472 444 464 444 463 444 473 445 465 445 464 445 474 446 466 446 465 446 92 447 476 447 467 447 467 448 477 448 468 448 468 449 478 449 469 449 469 450 479 450 470 450 470 451 480 451 471 451 480 452 472 452 471 452 481 453 473 453 472 453 482 454 474 454 473 454 483 455 475 455 474 455 94 456 476 456 93 456 485 457 477 457 476 457 486 458 478 458 477 458 487 459 479 459 478 459 488 460 480 460 479 460 480 461 490 461 481 461 481 462 491 462 482 462 482 463 492 463 483 463 483 464 493 464 484 464 95 465 485 465 94 465 494 466 486 466 485 466 495 467 487 467 486 467 496 468 488 468 487 468 497 469 489 469 488 469 489 470 499 470 490 470 490 471 500 471 491 471 491 472 501 472 492 472 492 473 502 473 493 473 96 474 494 474 95 474 503 475 495 475 494 475 504 476 496 476 495 476 505 477 497 477 496 477 506 478 498 478 497 478 498 479 508 479 499 479 499 480 509 480 500 480 500 481 510 481 501 481 501 482 511 482 502 482 97 483 503 483 96 483 512 484 504 484 503 484 513 485 505 485 504 485 514 486 506 486 505 486 515 487 507 487 506 487 507 488 517 488 508 488 508 489 518 489 509 489 509 490 519 490 510 490 510 491 520 491 511 491 7 492 512 492 97 492 115 493 513 493 512 493 114 494 514 494 513 494 113 495 515 495 514 495 112 496 516 496 515 496 516 497 110 497 517 497 517 498 109 498 518 498 518 499 108 499 519 499 519 500 107 500 520 500 529 501 3 501 25 501 538 502 61 502 529 502 547 503 60 503 538 503 556 504 59 504 547 504 565 505 58 505 556 505 565 506 56 506 57 506 574 507 55 507 56 507 583 508 54 508 55 508 592 509 53 509 54 509 0 510 521 510 17 510 17 511 522 511 18 511 18 512 523 512 19 512 19 513 524 513 20 513 20 514 525 514 21 514 525 515 22 515 21 515 526 516 23 516 22 516 527 517 24 517 23 517 528 518 25 518 24 518 8 519 530 519 521 519 521 520 531 520 522 520 522 521 532 521 523 521 523 522 533 522 524 522 524 523 534 523 525 523 534 524 526 524 525 524 535 525 527 525 526 525 536 526 528 526 527 526 537 527 529 527 528 527 9 528 539 528 530 528 530 529 540 529 531 529 531 530 541 530 532 530 532 531 542 531 533 531 533 532 543 532 534 532 543 533 535 533 534 533 544 534 536 534 535 534 545 535 537 535 536 535 546 536 538 536 537 536 10 537 548 537 539 537 539 538 549 538 540 538 540 539 550 539 541 539 541 540 551 540 542 540 542 541 552 541 543 541 552 542 544 542 543 542 553 543 545 543 544 543 554 544 546 544 545 544 555 545 547 545 546 545 11 546 557 546 548 546 548 547 558 547 549 547 549 548 559 548 550 548 550 549 560 549 551 549 551 550 561 550 552 550 561 551 553 551 552 551 562 552 554 552 553 552 563 553 555 553 554 553 564 554 556 554 555 554 13 555 557 555 12 555 566 556 558 556 557 556 567 557 559 557 558 557 568 558 560 558 559 558 569 559 561 559 560 559 561 560 571 560 562 560 562 561 572 561 563 561 563 562 573 562 564 562 564 563 574 563 565 563 14 564 566 564 13 564 575 565 567 565 566 565 576 566 568 566 567 566 577 567 569 567 568 567 578 568 570 568 569 568 570 569 580 569 571 569 571 570 581 570 572 570 572 571 582 571 573 571 573 572 583 572 574 572 15 573 575 573 14 573 584 574 576 574 575 574 585 575 577 575 576 575 586 576 578 576 577 576 587 577 579 577 578 577 579 578 589 578 580 578 580 579 590 579 581 579 581 580 591 580 582 580 582 581 592 581 583 581 16 582 584 582 15 582 593 583 585 583 584 583 594 584 586 584 585 584 595 585 587 585 586 585 596 586 588 586 587 586 588 587 598 587 589 587 589 588 599 588 590 588 590 589 600 589 591 589 591 590 601 590 592 590 1 591 593 591 16 591 35 592 594 592 593 592 36 593 595 593 594 593 37 594 596 594 595 594 38 595 597 595 596 595 597 596 40 596 598 596 598 597 41 597 599 597 599 598 42 598 600 598 600 599 43 599 601 599 601 600 43 600 2 600 520 601 107 601 6 601 88 602 5 602 52 602 358 603 106 603 6 603 115 604 7 604 79 604 196 605 25 605 3 605 124 606 79 606 7 606 133 607 78 607 79 607 142 608 77 608 78 608 151 609 76 609 77 609 160 610 75 610 76 610 160 611 169 611 74 611 169 612 178 612 73 612 178 613 187 613 72 613 187 614 196 614 71 614 4 615 34 615 116 615 89 616 116 616 117 616 90 617 117 617 118 617 91 618 118 618 119 618 119 619 120 619 93 619 93 620 120 620 121 620 121 621 122 621 95 621 122 622 123 622 96 622 123 623 124 623 97 623 34 624 33 624 125 624 116 625 125 625 126 625 117 626 126 626 127 626 118 627 127 627 128 627 119 628 128 628 129 628 129 629 130 629 121 629 130 630 131 630 122 630 131 631 132 631 123 631 132 632 133 632 124 632 33 633 32 633 134 633 125 634 134 634 135 634 126 635 135 635 136 635 127 636 136 636 137 636 128 637 137 637 138 637 138 638 139 638 130 638 139 639 140 639 131 639 140 640 141 640 132 640 141 641 142 641 133 641 32 642 31 642 143 642 134 643 143 643 144 643 135 644 144 644 145 644 136 645 145 645 146 645 137 646 146 646 147 646 147 647 148 647 139 647 148 648 149 648 140 648 149 649 150 649 141 649 150 650 151 650 142 650 31 651 30 651 152 651 143 652 152 652 153 652 144 653 153 653 154 653 145 654 154 654 155 654 146 655 155 655 156 655 156 656 157 656 148 656 157 657 158 657 149 657 158 658 159 658 150 658 159 659 160 659 151 659 29 660 161 660 152 660 161 661 162 661 153 661 162 662 163 662 154 662 163 663 164 663 155 663 164 664 165 664 156 664 156 665 165 665 166 665 157 666 166 666 167 666 158 667 167 667 168 667 159 668 168 668 169 668 28 669 170 669 161 669 170 670 171 670 162 670 171 671 172 671 163 671 172 672 173 672 164 672 173 673 174 673 165 673 165 674 174 674 175 674 166 675 175 675 176 675 167 676 176 676 177 676 168 677 177 677 178 677 27 678 179 678 170 678 179 679 180 679 171 679 180 680 181 680 172 680 181 681 182 681 173 681 182 682 183 682 174 682 174 683 183 683 184 683 175 684 184 684 185 684 176 685 185 685 186 685 177 686 186 686 187 686 26 687 188 687 179 687 188 688 189 688 180 688 189 689 190 689 181 689 190 690 191 690 182 690 191 691 192 691 183 691 183 692 192 692 193 692 184 693 193 693 194 693 185 694 194 694 195 694 186 695 195 695 196 695 0 696 17 696 188 696 17 697 18 697 189 697 18 698 19 698 190 698 19 699 20 699 191 699 191 700 20 700 21 700 21 701 22 701 193 701 193 702 22 702 23 702 194 703 23 703 24 703 195 704 24 704 25 704 61 705 205 705 71 705 205 706 214 706 72 706 214 707 223 707 73 707 223 708 232 708 74 708 232 709 241 709 75 709 250 710 76 710 75 710 259 711 77 711 76 711 268 712 78 712 77 712 277 713 79 713 78 713 62 714 197 714 53 714 197 715 198 715 54 715 198 716 199 716 55 716 199 717 200 717 56 717 200 718 201 718 57 718 57 719 201 719 202 719 58 720 202 720 203 720 59 721 203 721 204 721 60 722 204 722 205 722 63 723 206 723 197 723 206 724 207 724 198 724 207 725 208 725 199 725 208 726 209 726 200 726 209 727 210 727 201 727 201 728 210 728 211 728 202 729 211 729 212 729 203 730 212 730 213 730 204 731 213 731 214 731 64 732 215 732 206 732 215 733 216 733 207 733 216 734 217 734 208 734 217 735 218 735 209 735 218 736 219 736 210 736 210 737 219 737 220 737 211 738 220 738 221 738 212 739 221 739 222 739 213 740 222 740 223 740 65 741 224 741 215 741 224 742 225 742 216 742 225 743 226 743 217 743 226 744 227 744 218 744 227 745 228 745 219 745 219 746 228 746 229 746 220 747 229 747 230 747 221 748 230 748 231 748 222 749 231 749 232 749 66 750 233 750 224 750 233 751 234 751 225 751 225 752 234 752 235 752 226 753 235 753 236 753 227 754 236 754 237 754 237 755 238 755 229 755 238 756 239 756 230 756 239 757 240 757 231 757 231 758 240 758 241 758 66 759 67 759 242 759 233 760 242 760 243 760 243 761 244 761 235 761 244 762 245 762 236 762 245 763 246 763 237 763 237 764 246 764 247 764 238 765 247 765 248 765 239 766 248 766 249 766 249 767 250 767 241 767 67 768 68 768 251 768 242 769 251 769 252 769 243 770 252 770 253 770 244 771 253 771 254 771 245 772 254 772 255 772 255 773 256 773 247 773 256 774 257 774 248 774 257 775 258 775 249 775 258 776 259 776 250 776 68 777 69 777 260 777 251 778 260 778 261 778 252 779 261 779 262 779 253 780 262 780 263 780 254 781 263 781 264 781 264 782 265 782 256 782 265 783 266 783 257 783 266 784 267 784 258 784 267 785 268 785 259 785 69 786 70 786 269 786 260 787 269 787 270 787 261 788 270 788 271 788 262 789 271 789 272 789 263 790 272 790 273 790 273 791 274 791 265 791 274 792 275 792 266 792 275 793 276 793 267 793 276 794 277 794 268 794 70 795 6 795 107 795 269 796 107 796 108 796 270 797 108 797 109 797 271 798 109 798 110 798 272 799 110 799 111 799 111 800 112 800 274 800 112 801 113 801 275 801 113 802 114 802 276 802 114 803 115 803 277 803 286 804 62 804 2 804 295 805 63 805 62 805 304 806 64 806 63 806 313 807 65 807 64 807 322 808 66 808 65 808 322 809 331 809 67 809 331 810 340 810 68 810 340 811 349 811 69 811 349 812 358 812 70 812 1 813 44 813 278 813 35 814 278 814 279 814 36 815 279 815 280 815 37 816 280 816 281 816 281 817 282 817 39 817 39 818 282 818 283 818 283 819 284 819 41 819 284 820 285 820 42 820 285 821 286 821 43 821 44 822 45 822 287 822 278 823 287 823 288 823 279 824 288 824 289 824 280 825 289 825 290 825 281 826 290 826 291 826 291 827 292 827 283 827 292 828 293 828 284 828 293 829 294 829 285 829 294 830 295 830 286 830 45 831 46 831 296 831 287 832 296 832 297 832 288 833 297 833 298 833 289 834 298 834 299 834 290 835 299 835 300 835 300 836 301 836 292 836 301 837 302 837 293 837 302 838 303 838 294 838 303 839 304 839 295 839 46 840 47 840 305 840 296 841 305 841 306 841 297 842 306 842 307 842 298 843 307 843 308 843 299 844 308 844 309 844 309 845 310 845 301 845 310 846 311 846 302 846 311 847 312 847 303 847 312 848 313 848 304 848 47 849 48 849 314 849 305 850 314 850 315 850 306 851 315 851 316 851 307 852 316 852 317 852 308 853 317 853 318 853 318 854 319 854 310 854 319 855 320 855 311 855 320 856 321 856 312 856 321 857 322 857 313 857 49 858 323 858 314 858 323 859 324 859 315 859 324 860 325 860 316 860 325 861 326 861 317 861 326 862 327 862 318 862 318 863 327 863 328 863 319 864 328 864 329 864 320 865 329 865 330 865 321 866 330 866 331 866 50 867 332 867 323 867 332 868 333 868 324 868 333 869 334 869 325 869 334 870 335 870 326 870 335 871 336 871 327 871 327 872 336 872 337 872 328 873 337 873 338 873 329 874 338 874 339 874 330 875 339 875 340 875 51 876 341 876 332 876 341 877 342 877 333 877 342 878 343 878 334 878 343 879 344 879 335 879 344 880 345 880 336 880 336 881 345 881 346 881 337 882 346 882 347 882 338 883 347 883 348 883 339 884 348 884 349 884 52 885 350 885 341 885 350 886 351 886 342 886 351 887 352 887 343 887 352 888 353 888 344 888 353 889 354 889 345 889 345 890 354 890 355 890 346 891 355 891 356 891 347 892 356 892 357 892 348 893 357 893 358 893 5 894 98 894 350 894 98 895 99 895 351 895 99 896 100 896 352 896 100 897 101 897 353 897 353 898 101 898 102 898 102 899 103 899 355 899 355 900 103 900 104 900 356 901 104 901 105 901 357 902 105 902 106 902 16 903 367 903 44 903 367 904 376 904 45 904 376 905 385 905 46 905 385 906 394 906 47 906 394 907 403 907 48 907 412 908 49 908 48 908 421 909 50 909 49 909 430 910 51 910 50 910 439 911 52 911 51 911 26 912 359 912 8 912 359 913 360 913 9 913 360 914 361 914 10 914 361 915 362 915 11 915 362 916 363 916 12 916 12 917 363 917 364 917 13 918 364 918 365 918 14 919 365 919 366 919 15 920 366 920 367 920 27 921 368 921 359 921 368 922 369 922 360 922 369 923 370 923 361 923 370 924 371 924 362 924 371 925 372 925 363 925 363 926 372 926 373 926 364 927 373 927 374 927 365 928 374 928 375 928 366 929 375 929 376 929 28 930 377 930 368 930 377 931 378 931 369 931 378 932 379 932 370 932 379 933 380 933 371 933 380 934 381 934 372 934 372 935 381 935 382 935 373 936 382 936 383 936 374 937 383 937 384 937 375 938 384 938 385 938 29 939 386 939 377 939 386 940 387 940 378 940 387 941 388 941 379 941 388 942 389 942 380 942 389 943 390 943 381 943 381 944 390 944 391 944 382 945 391 945 392 945 383 946 392 946 393 946 384 947 393 947 394 947 30 948 395 948 386 948 395 949 396 949 387 949 387 950 396 950 397 950 388 951 397 951 398 951 389 952 398 952 399 952 399 953 400 953 391 953 400 954 401 954 392 954 401 955 402 955 393 955 393 956 402 956 403 956 30 957 31 957 404 957 395 958 404 958 405 958 405 959 406 959 397 959 406 960 407 960 398 960 407 961 408 961 399 961 399 962 408 962 409 962 400 963 409 963 410 963 401 964 410 964 411 964 411 965 412 965 403 965 31 966 32 966 413 966 404 967 413 967 414 967 405 968 414 968 415 968 406 969 415 969 416 969 416 970 417 970 408 970 417 971 418 971 409 971 418 972 419 972 410 972 419 973 420 973 411 973 420 974 421 974 412 974 32 975 33 975 422 975 413 976 422 976 423 976 414 977 423 977 424 977 415 978 424 978 425 978 416 979 425 979 426 979 426 980 427 980 418 980 427 981 428 981 419 981 428 982 429 982 420 982 429 983 430 983 421 983 33 984 34 984 431 984 422 985 431 985 432 985 423 986 432 986 433 986 424 987 433 987 434 987 425 988 434 988 435 988 435 989 436 989 427 989 436 990 437 990 428 990 437 991 438 991 429 991 438 992 439 992 430 992 34 993 4 993 80 993 431 994 80 994 81 994 432 995 81 995 82 995 433 996 82 996 83 996 434 997 83 997 84 997 84 998 85 998 436 998 85 999 86 999 437 999 86 1000 87 1000 438 1000 87 1001 88 1001 439 1001 448 1002 98 1002 5 1002 457 1003 99 1003 98 1003 466 1004 100 1004 99 1004 475 1005 101 1005 100 1005 484 1006 102 1006 101 1006 484 1007 493 1007 103 1007 493 1008 502 1008 104 1008 502 1009 511 1009 105 1009 511 1010 520 1010 106 1010 4 1011 89 1011 440 1011 80 1012 440 1012 441 1012 81 1013 441 1013 442 1013 82 1014 442 1014 443 1014 83 1015 443 1015 444 1015 444 1016 445 1016 85 1016 445 1017 446 1017 86 1017 446 1018 447 1018 87 1018 447 1019 448 1019 88 1019 89 1020 90 1020 449 1020 440 1021 449 1021 450 1021 441 1022 450 1022 451 1022 442 1023 451 1023 452 1023 443 1024 452 1024 453 1024 453 1025 454 1025 445 1025 454 1026 455 1026 446 1026 455 1027 456 1027 447 1027 456 1028 457 1028 448 1028 90 1029 91 1029 458 1029 449 1030 458 1030 459 1030 450 1031 459 1031 460 1031 451 1032 460 1032 461 1032 452 1033 461 1033 462 1033 462 1034 463 1034 454 1034 463 1035 464 1035 455 1035 464 1036 465 1036 456 1036 465 1037 466 1037 457 1037 91 1038 92 1038 467 1038 458 1039 467 1039 468 1039 459 1040 468 1040 469 1040 460 1041 469 1041 470 1041 461 1042 470 1042 471 1042 471 1043 472 1043 463 1043 472 1044 473 1044 464 1044 473 1045 474 1045 465 1045 474 1046 475 1046 466 1046 92 1047 93 1047 476 1047 467 1048 476 1048 477 1048 468 1049 477 1049 478 1049 469 1050 478 1050 479 1050 470 1051 479 1051 480 1051 480 1052 481 1052 472 1052 481 1053 482 1053 473 1053 482 1054 483 1054 474 1054 483 1055 484 1055 475 1055 94 1056 485 1056 476 1056 485 1057 486 1057 477 1057 486 1058 487 1058 478 1058 487 1059 488 1059 479 1059 488 1060 489 1060 480 1060 480 1061 489 1061 490 1061 481 1062 490 1062 491 1062 482 1063 491 1063 492 1063 483 1064 492 1064 493 1064 95 1065 494 1065 485 1065 494 1066 495 1066 486 1066 495 1067 496 1067 487 1067 496 1068 497 1068 488 1068 497 1069 498 1069 489 1069 489 1070 498 1070 499 1070 490 1071 499 1071 500 1071 491 1072 500 1072 501 1072 492 1073 501 1073 502 1073 96 1074 503 1074 494 1074 503 1075 504 1075 495 1075 504 1076 505 1076 496 1076 505 1077 506 1077 497 1077 506 1078 507 1078 498 1078 498 1079 507 1079 508 1079 499 1080 508 1080 509 1080 500 1081 509 1081 510 1081 501 1082 510 1082 511 1082 97 1083 512 1083 503 1083 512 1084 513 1084 504 1084 513 1085 514 1085 505 1085 514 1086 515 1086 506 1086 515 1087 516 1087 507 1087 507 1088 516 1088 517 1088 508 1089 517 1089 518 1089 509 1090 518 1090 519 1090 510 1091 519 1091 520 1091 7 1092 115 1092 512 1092 115 1093 114 1093 513 1093 114 1094 113 1094 514 1094 113 1095 112 1095 515 1095 112 1096 111 1096 516 1096 516 1097 111 1097 110 1097 517 1098 110 1098 109 1098 518 1099 109 1099 108 1099 519 1100 108 1100 107 1100 529 1101 61 1101 3 1101 538 1102 60 1102 61 1102 547 1103 59 1103 60 1103 556 1104 58 1104 59 1104 565 1105 57 1105 58 1105 565 1106 574 1106 56 1106 574 1107 583 1107 55 1107 583 1108 592 1108 54 1108 592 1109 601 1109 53 1109 0 1110 8 1110 521 1110 17 1111 521 1111 522 1111 18 1112 522 1112 523 1112 19 1113 523 1113 524 1113 20 1114 524 1114 525 1114 525 1115 526 1115 22 1115 526 1116 527 1116 23 1116 527 1117 528 1117 24 1117 528 1118 529 1118 25 1118 8 1119 9 1119 530 1119 521 1120 530 1120 531 1120 522 1121 531 1121 532 1121 523 1122 532 1122 533 1122 524 1123 533 1123 534 1123 534 1124 535 1124 526 1124 535 1125 536 1125 527 1125 536 1126 537 1126 528 1126 537 1127 538 1127 529 1127 9 1128 10 1128 539 1128 530 1129 539 1129 540 1129 531 1130 540 1130 541 1130 532 1131 541 1131 542 1131 533 1132 542 1132 543 1132 543 1133 544 1133 535 1133 544 1134 545 1134 536 1134 545 1135 546 1135 537 1135 546 1136 547 1136 538 1136 10 1137 11 1137 548 1137 539 1138 548 1138 549 1138 540 1139 549 1139 550 1139 541 1140 550 1140 551 1140 542 1141 551 1141 552 1141 552 1142 553 1142 544 1142 553 1143 554 1143 545 1143 554 1144 555 1144 546 1144 555 1145 556 1145 547 1145 11 1146 12 1146 557 1146 548 1147 557 1147 558 1147 549 1148 558 1148 559 1148 550 1149 559 1149 560 1149 551 1150 560 1150 561 1150 561 1151 562 1151 553 1151 562 1152 563 1152 554 1152 563 1153 564 1153 555 1153 564 1154 565 1154 556 1154 13 1155 566 1155 557 1155 566 1156 567 1156 558 1156 567 1157 568 1157 559 1157 568 1158 569 1158 560 1158 569 1159 570 1159 561 1159 561 1160 570 1160 571 1160 562 1161 571 1161 572 1161 563 1162 572 1162 573 1162 564 1163 573 1163 574 1163 14 1164 575 1164 566 1164 575 1165 576 1165 567 1165 576 1166 577 1166 568 1166 577 1167 578 1167 569 1167 578 1168 579 1168 570 1168 570 1169 579 1169 580 1169 571 1170 580 1170 581 1170 572 1171 581 1171 582 1171 573 1172 582 1172 583 1172 15 1173 584 1173 575 1173 584 1174 585 1174 576 1174 585 1175 586 1175 577 1175 586 1176 587 1176 578 1176 587 1177 588 1177 579 1177 579 1178 588 1178 589 1178 580 1179 589 1179 590 1179 581 1180 590 1180 591 1180 582 1181 591 1181 592 1181 16 1182 593 1182 584 1182 593 1183 594 1183 585 1183 594 1184 595 1184 586 1184 595 1185 596 1185 587 1185 596 1186 597 1186 588 1186 588 1187 597 1187 598 1187 589 1188 598 1188 599 1188 590 1189 599 1189 600 1189 591 1190 600 1190 601 1190 1 1191 35 1191 593 1191 35 1192 36 1192 594 1192 36 1193 37 1193 595 1193 37 1194 38 1194 596 1194 38 1195 39 1195 597 1195 597 1196 39 1196 40 1196 598 1197 40 1197 41 1197 599 1198 41 1198 42 1198 600 1199 42 1199 43 1199</p>
        </triangles>
      </mesh>
    </geometry>
  </library_geometries>
  <library_controllers/>
  <library_visual_scenes>
    <visual_scene id="Scene" name="Scene">
      <node id="Camera" name="Camera" type="NODE">
        <matrix sid="transform">0.6858805 -0.3173701 0.6548619 7.481132 0.7276338 0.3124686 -0.6106656 -6.50764 -0.01081678 0.8953432 0.4452454 5.343665 0 0 0 1</matrix>
        <instance_camera url="#Camera-camera"/>
      </node>
      <node id="Lamp" name="Lamp" type="NODE">
        <matrix sid="transform">-0.2908646 -0.7711008 0.5663932 4.076245 0.9551712 -0.1998834 0.2183912 1.005454 -0.05518906 0.6045247 0.7946723 5.903862 0 0 0 1</matrix>
        <instance_light url="#Lamp-light"/>
      </node>
      <node id="sponge_small" name="sponge_small" type="NODE">
        <matrix sid="transform">1 0 0 0 0 1 0 0 0 0 1 0 0 0 0 1</matrix>
        <node id="sponge_small_root" name="root" sid="root" type="JOINT">
          <matrix sid="transform">1 0 0 0 0 1 0 0 0 0 1 0 0 0 0 1</matrix>
          <node id="MARKER_sponge_dry_03" name="MARKER_sponge_dry_03" type="NODE">
            <matrix sid="transform">1 0 0 -0.04130646 0 1 0 -0.03056797 0 0 1 0.01826061 0 0 0 1</matrix>
            <node id="sponge_dry_03" name="sponge_dry_03" type="NODE">
              <matrix sid="transform">1 0 0 0 0 1 0 0 0 0 1 0 0 0 0 1</matrix>
            </node>
          </node>
          <node id="MARKER_sponge_dry_01" name="MARKER_sponge_dry_01" type="NODE">
            <matrix sid="transform">1 0 0 0.05598314 0 1 0 0.05005863 0 0 1 0.02123851 0 0 0 1</matrix>
            <node id="sponge_dry_01" name="sponge_dry_01" type="NODE">
              <matrix sid="transform">1 0 0 0 0 1 0 0 0 0 1 0 0 0 0 1</matrix>
            </node>
          </node>
          <node id="MARKER_sponge_dry_04" name="MARKER_sponge_dry_04" type="NODE">
            <matrix sid="transform">1 0 0 -0.05932148 0 1 0 0.04793431 0 0 1 0.02077153 0 0 0 1</matrix>
            <node id="sponge_dry_04" name="sponge_dry_04" type="NODE">
              <matrix sid="transform">1 0 0 0 0 1 0 0 0 0 1 0 0 0 0 1</matrix>
            </node>
          </node>
          <node id="MARKER_sponge_dry_02" name="MARKER_sponge_dry_02" type="NODE">
            <matrix sid="transform">1 0 0 -0.06785022 0 1 0 -0.01231728 0 0 1 0.01997155 0 0 0 1</matrix>
            <node id="sponge_dry_02" name="sponge_dry_02" type="NODE">
              <matrix sid="transform">1 0 0 0 0 1 0 0 0 0 1 0 0 0 0 1</matrix>
            </node>
          </node>
          <node id="sponge_mesh" name="sponge_mesh" type="NODE">
            <matrix sid="transform">1 0 0 0 0 1 0 -0.01049928 0 0 1 0 0 0 0 1</matrix>
            <instance_geometry url="#Cube-mesh" name="sponge_mesh">
              <bind_material>
                <technique_common>
                  <instance_material symbol="Material-material" target="#Material-material"/>
                </technique_common>
              </bind_material>
            </instance_geometry>
          </node>
          <extra>
            <technique profile="blender">
              <layer sid="layer" type="string">0</layer>
              <tip_x sid="tip_x" type="float">0</tip_x>
              <tip_y sid="tip_y" type="float">0.1300004</tip_y>
              <tip_z sid="tip_z" type="float">0</tip_z>
            </technique>
          </extra>
        </node>
      </node>
    </visual_scene>
  </library_visual_scenes>
  <scene>
    <instance_visual_scene url="#Scene"/>
  </scene>
</COLLADA>